\relax 
\providecommand\hyper@newdestlabel[2]{}
\providecommand\babel@aux[2]{}
\@nameuse{bbl@beforestart}
\providecommand\HyperFirstAtBeginDocument{\AtBeginDocument}
\HyperFirstAtBeginDocument{\ifx\hyper@anchor\@undefined
\global\let\oldnewlabel\newlabel
\gdef\newlabel#1#2{\newlabelxx{#1}#2}
\gdef\newlabelxx#1#2#3#4#5#6{\oldnewlabel{#1}{{#2}{#3}}}
\AtEndDocument{\ifx\hyper@anchor\@undefined
\let\newlabel\oldnewlabel
\fi}
\fi}
\global\let\hyper@last\relax 
\gdef\HyperFirstAtBeginDocument#1{#1}
\providecommand\HyField@AuxAddToFields[1]{}
\providecommand\HyField@AuxAddToCoFields[2]{}
\babel@aux{english}{}
\newlabel{index::doc}{{}{1}{}{section*.2}{}}
\@writefile{toc}{\contentsline {chapter}{\numberline {1}How to test}{3}{chapter.1}\protected@file@percent }
\@writefile{lof}{\addvspace {10\p@ }}
\@writefile{lot}{\addvspace {10\p@ }}
\newlabel{readme:how-to-test}{{1}{3}{How to test}{chapter.1}{}}
\newlabel{readme::doc}{{1}{3}{How to test}{chapter.1}{}}
\@writefile{toc}{\contentsline {chapter}{\numberline {2}How to use BasGra software}{5}{chapter.2}\protected@file@percent }
\@writefile{lof}{\addvspace {10\p@ }}
\@writefile{lot}{\addvspace {10\p@ }}
\newlabel{readme:how-to-use-basgra-software}{{2}{5}{How to use BasGra software}{chapter.2}{}}
\@writefile{toc}{\contentsline {chapter}{\numberline {3}How to contribute}{7}{chapter.3}\protected@file@percent }
\@writefile{lof}{\addvspace {10\p@ }}
\@writefile{lot}{\addvspace {10\p@ }}
\newlabel{readme:how-to-contribute}{{3}{7}{How to contribute}{chapter.3}{}}
\@writefile{toc}{\contentsline {chapter}{\numberline {4}Other related pasture models}{9}{chapter.4}\protected@file@percent }
\@writefile{lof}{\addvspace {10\p@ }}
\@writefile{lot}{\addvspace {10\p@ }}
\newlabel{readme:other-related-pasture-models}{{4}{9}{Other related pasture models}{chapter.4}{}}
\@writefile{toc}{\contentsline {chapter}{\numberline {5}Indices and tables}{11}{chapter.5}\protected@file@percent }
\@writefile{lof}{\addvspace {10\p@ }}
\@writefile{lot}{\addvspace {10\p@ }}
\newlabel{index:indices-and-tables}{{5}{11}{Indices and tables}{chapter.5}{}}
\gdef \@abspage@last{15}
