\babel@toc {english}{}\relax 
\contentsline {chapter}{\numberline {1}How to test}{3}{chapter.1}%
\contentsline {chapter}{\numberline {2}How to use BasGra software}{5}{chapter.2}%
\contentsline {chapter}{\numberline {3}How to contribute}{7}{chapter.3}%
\contentsline {chapter}{\numberline {4}Other related pasture models}{9}{chapter.4}%
\contentsline {chapter}{\numberline {5}Indices and tables}{11}{chapter.5}%
