1999,1,0.4,4.3,6.9,0.830594128417611,2.4,0.6,0.00,0.00,0.00,0,0
1999,2,0.5,3.1,6.1,0.763161169701315,2.7,9.1,0.00,0.00,0.00,0,0
1999,3,0.3,4.7,5.6,0.854211365929442,1.8,8,0.00,0.00,0.00,0,0
1999,4,0.6,1.7,7,0.690634387606814,4.1,18.3,0.00,0.00,0.00,0,0
1999,5,0.4,4,7.1,0.813261095826253,2.7,10,0.00,0.00,0.00,0,0
1999,6,0.4,1.7,4.6,0.690634387606814,0.9,5,0.00,0.00,0.00,0,0
1999,7,0.6,0.1,2.9,0.615259552462772,0.5,0.9,0.00,0.00,0.00,0,0
1999,8,0.4,-1.8,1,0.535269079794481,0.4,0,0.00,0.00,0.00,0,0
1999,9,1.4,-4.4,-0.4,0.440760122900955,0.6,0.6,0.00,0.00,0.00,0,0
1999,10,0.7,-3.7,0,0.464624398311495,0.9,0.2,0.00,0.00,0.00,0,0
1999,11,1.6,-5.3,-0.4,0.411677139820836,0.6,0.7,0.00,0.00,0.00,0,0
1999,12,1.5,-4.4,-2,0.440760122900955,2.6,0.4,0.00,0.00,0.00,0,0
1999,13,0.4,-3.5,-2.5,0.471649742534296,2.9,0.1,0.00,0.00,0.00,0,0
1999,14,0.3,-4,-0.8,0.454260185893981,3.1,2.8,0.00,0.00,0.00,0,0
1999,15,1,-2.3,6.4,0.515812868329809,2.9,19.9,0.00,0.00,0.00,0,0
1999,16,1.6,1,5,0.656709163989081,4.1,5.3,0.00,0.00,0.00,0,0
1999,17,1.2,2.8,4.4,0.747077546450387,4.2,6.5,0.00,0.00,0.00,0,0
1999,18,1.6,2.8,5.2,0.747077546450387,2.9,12.6,0.00,0.00,0.00,0,0
1999,19,0.1,5,7.3,0.872310960349712,3.8,7.7,0.00,0.00,0.00,0,0
1999,20,0.9,5.1,7.3,0.878418853288568,2.6,1,0.00,0.00,0.00,0,0
1999,21,0.8,1.3,6.2,0.671063852424105,2.8,3.5,0.00,0.00,0.00,0,0
1999,22,1.3,1.9,5.2,0.700607395731375,3.2,6.7,0.00,0.00,0.00,0,0
1999,23,0.2,3.7,5.5,0.79624796581976,3.7,23,0.00,0.00,0.00,0,0
1999,24,1.2,3.3,5.8,0.774052652323659,3.8,3.3,0.00,0.00,0.00,0,0
1999,25,0.7,1.8,4.2,0.695605104272952,1.7,4.5,0.00,0.00,0.00,0,0
1999,26,2.2,1,4.1,0.656709163989081,0.9,4.2,0.00,0.00,0.00,0,0
1999,27,2.6,-1.9,2.5,0.53132668070862,0.8,0.6,0.00,0.00,0.00,0,0
1999,28,2.5,-4.9,-0.6,0.424385850986248,1,0.3,0.00,0.00,0.00,0,0
1999,29,3.9,-5.6,1.5,0.402368268739689,0.8,0.6,0.00,0.00,0.00,0,0
1999,30,0.8,1.3,5.3,0.671063852424105,1.1,7.4,0.00,0.00,0.00,0,0
1999,31,0.7,4.1,5.6,0.81900297596515,1.7,7.1,0.00,0.00,0.00,0,0
1999,32,1,4.4,6.2,0.836443782617892,3.3,0.2,0.00,0.00,0.00,0,0
1999,33,1.1,3.8,5.4,0.801883779217918,1.7,1.2,0.00,0.00,0.00,0,0
1999,34,1,3.5,7.3,0.785081092664949,2.9,20.2,0.00,0.00,0.00,0,0
1999,35,2.3,-0.8,7.5,0.576140162457148,10.3,3.8,0.00,0.00,0.00,0,0
1999,36,2.5,-0.6,3.5,0.584637876198776,11.2,3.5,0.00,0.00,0.00,0,0
1999,37,3,-2.2,2.4,0.519653242030189,3,2.2,0.00,0.00,0.00,0,0
1999,38,5.8,-3.9,1,0.457691926656685,0.5,1.7,0.00,0.00,0.00,0,0
1999,39,4.5,-6.7,-1.2,0.369812433030401,0.8,0.9,0.00,0.00,0.00,0,0
1999,40,3.7,-6.7,1.1,0.369812433030401,0.5,2.1,0.00,0.00,0.00,0,0
1999,41,6.2,-7.6,-0.8,0.34493755179867,0.8,0.7,0.00,0.00,0.00,0,0
1999,42,3.9,-6.9,0.4,0.364151158671508,0.5,0.8,0.00,0.00,0.00,0,0
1999,43,2.6,0,2.8,0.6108,0.7,0.4,0.00,0.00,0.00,0,0
1999,44,0.6,2.1,3.9,0.710707392442634,1.6,3.8,0.00,0.00,0.00,0,0
1999,45,0.6,2.2,4.4,0.715805444331265,2.7,7.7,0.00,0.00,0.00,0,0
1999,46,0.2,1.1,5.1,0.661463613522346,4.6,23.8,0.00,0.00,0.00,0,0
1999,47,3.8,-4.4,1.8,0.440760122900955,3.6,5.3,0.00,0.00,0.00,0,0
1999,48,4.7,-5.1,-0.3,0.417988670406367,1.6,7,0.00,0.00,0.00,0,0
1999,49,4,-3.6,1.3,0.468125394606022,1.2,1.4,0.00,0.00,0.00,0,0
1999,50,2.5,0.6,4.6,0.637991965088051,3.1,19.1,0.00,0.00,0.00,0,0
1999,51,3.5,-0.3,3,0.59759233883635,2.9,7.2,0.00,0.00,0.00,0,0
1999,52,2.4,-0.5,2.6,0.588928157025839,1,6.1,0.00,0.00,0.00,0,0
1999,53,2.9,-1.9,0.9,0.53132668070862,1.3,0.8,0.00,0.00,0.00,0,0
1999,54,5.2,-1.7,3.4,0.539237347161083,1,0.5,0.00,0.00,0.00,0,0
1999,55,9,-2.6,2.8,0.504442066143341,1,0.7,0.00,0.00,0.00,0,0
1999,56,1.1,-0.8,3.6,0.576140162457148,0.8,3.4,0.00,0.00,0.00,0,0
1999,57,6.6,3.5,5.7,0.785081092664949,2.5,5.4,0.00,0.00,0.00,0,0
1999,58,1.8,1.4,5,0.67590997623516,1.9,2.9,0.00,0.00,0.00,0,0
1999,59,2.9,1.6,5.2,0.685695074338206,4.1,8.9,0.00,0.00,0.00,0,0
1999,60,7.1,1.5,4.6,0.680786993837009,4.2,0.7,0.00,0.00,0.00,0,0
1999,61,5.9,1.1,5,0.661463613522346,2.3,0.3,0.00,0.00,0.00,0,0
1999,62,3.2,0.7,3.6,0.642626504140032,2.8,9.5,0.00,0.00,0.00,0,0
1999,63,3.5,2.4,5.7,0.726098527572168,1.1,2.9,0.00,0.00,0.00,0,0
1999,64,6.7,1.7,8.1,0.690634387606814,0.7,0.2,0.00,0.00,0.00,0,0
1999,65,2.7,1.4,3.2,0.67590997623516,1,2.2,0.00,0.00,0.00,0,0
1999,66,2.7,1.6,4.4,0.685695074338206,0.5,0.6,0.00,0.00,0.00,0,0
1999,67,9.2,1.4,7.1,0.67590997623516,1.7,2.9,0.00,0.00,0.00,0,0
1999,68,5.4,-0.2,4,0.601966550846925,1.3,0.2,0.00,0.00,0.00,0,0
1999,69,6.7,-1.7,2.4,0.539237347161083,0.4,0.3,0.00,0.00,0.00,0,0
1999,70,5,-2,1.6,0.527410004455476,1.5,0.1,0.00,0.00,0.00,0,0
1999,71,3.5,0,3.2,0.6108,3.3,0.1,0.00,0.00,0.00,0,0
1999,72,2.6,0.9,3.6,0.651984939356404,3.5,2.9,0.00,0.00,0.00,0,0
1999,73,4,1.1,4.8,0.661463613522346,1.9,0.1,0.00,0.00,0.00,0,0
1999,74,11.1,0.4,4.2,0.628811428473615,2.1,0.1,0.00,0.00,0.00,0,0
1999,75,1.1,1.9,4.8,0.700607395731375,3.4,10.9,0.00,0.00,0.00,0,0
1999,76,3.7,4.6,8.6,0.848252207927229,1.2,1.9,0.00,0.00,0.00,0,0
1999,77,1.5,3.1,7.7,0.763161169701315,1.9,12,0.00,0.00,0.00,0,0
1999,78,7.5,1.9,5.4,0.700607395731375,4.8,0.7,0.00,0.00,0.00,0,0
1999,79,11.3,0.2,4.4,0.619747868264412,3.2,1,0.00,0.00,0.00,0,0
1999,80,2.1,1.2,5.3,0.666248454052236,1.2,19.4,0.00,0.00,0.00,0,0
1999,81,11.5,-0.7,3.7,0.580375262589671,4.1,3.2,0.00,0.00,0.00,0,0
1999,82,13.8,-1.8,3.7,0.535269079794481,2.4,1.1,0.00,0.00,0.00,0,0
1999,83,1.5,-0.6,5.5,0.584637876198776,2.5,4.1,0.00,0.00,0.00,0,0
1999,84,4.5,2.4,7,0.726098527572168,0.9,1.6,0.00,0.00,0.00,0,0
1999,85,1.8,3.7,7.3,0.79624796581976,1.9,2.6,0.00,0.00,0.00,0,0
1999,86,11.8,3,7.2,0.757766330097758,2.5,0.7,0.00,0.00,0.00,0,0
1999,87,11.7,3.2,7.5,0.768589882986073,2.6,0.3,0.00,0.00,0.00,0,0
1999,88,2,4.8,6.6,0.86020741349226,2.8,16.5,0.00,0.00,0.00,0,0
1999,89,5.9,5.1,8.4,0.878418853288568,1.6,0.1,0.00,0.00,0.00,0,0
1999,90,11.8,4.4,12.3,0.836443782617892,1.9,0.3,0.00,0.00,0.00,0,0
1999,91,13.2,7.8,15.8,1.0582434147157,1.2,0.3,0.00,0.00,0.00,0,0
1999,92,15.2,8.1,17.1,1.0800971266534,1,0.3,0.00,0.00,0.00,0,0
1999,93,14.7,6.7,14.2,0.981406538897068,1.6,0.2,0.00,0.00,0.00,0,0
1999,94,16.6,5.1,12.3,0.878418853288568,1.5,0.3,0.00,0.00,0.00,0,0
1999,95,2.5,5.5,8.9,0.903229187415273,1.4,8.6,0.00,0.00,0.00,0,0
1999,96,2.6,6.4,8.5,0.961323338245264,1.6,8.9,0.00,0.00,0.00,0,0
1999,97,5.1,4.5,7.5,0.842329744778648,4.9,1.4,0.00,0.00,0.00,0,0
1999,98,8.9,3.6,7.8,0.790647132440971,1.8,1.8,0.00,0.00,0.00,0,0
1999,99,7,6.5,9.9,0.967977126816785,2.9,2.9,0.00,0.00,0.00,0,0
1999,100,2.9,5.8,7.6,0.922240257368075,2.9,1.5,0.00,0.00,0.00,0,0
1999,101,7.9,3.3,6.8,0.774052652323659,5.5,6.6,0.00,0.00,0.00,0,0
1999,102,3.2,3,6.4,0.757766330097758,1.9,1.7,0.00,0.00,0.00,0,0
1999,103,6,1.6,4,0.685695074338206,2.9,9.8,0.00,0.00,0.00,0,0
1999,104,10.9,0.6,4.9,0.637991965088051,4.8,1.1,0.00,0.00,0.00,0,0
1999,105,17.6,-0.4,6.2,0.593246259519146,1.7,0.3,0.00,0.00,0.00,0,0
1999,106,13.8,1.8,7.7,0.695605104272952,1.4,0.5,0.00,0.00,0.00,0,0
1999,107,18.4,0.7,8.5,0.642626504140032,2.5,0.4,0.00,0.00,0.00,0,0
1999,108,17.4,0.5,6.3,0.633386993995039,6.6,0.2,0.00,0.00,0.00,0,0
1999,109,16.3,2.1,6.2,0.710707392442634,6.7,0.3,0.00,0.00,0.00,0,0
1999,110,17.7,2,7.8,0.705641434144028,1.7,0.2,0.00,0.00,0.00,0,0
1999,111,4.1,5,9.2,0.872310960349712,2.5,0,0.00,0.00,0.00,0,0
1999,112,9.9,5.3,11.4,0.890747868683361,1.8,0.2,0.00,0.00,0.00,0,0
1999,113,15.4,5.7,14.5,0.915864418312889,1.5,0.6,0.00,0.00,0.00,0,0
1999,114,20.2,6.4,14.3,0.961323338245264,1.3,0.4,0.00,0.00,0.00,0,0
1999,115,18,8.2,17.7,1.08746945717719,1.5,0.4,0.00,0.00,0.00,0,0
1999,116,13.1,10.1,16.8,1.23621552243184,1.2,1,0.00,0.00,0.00,0,0
1999,117,21.8,5.2,15.5,0.884564423081917,2.4,0.4,0.00,0.00,0.00,0,0
1999,118,9.3,4.5,9.6,0.842329744778648,5.1,0.8,0.00,0.00,0.00,0,0
1999,119,18.3,3.2,8.9,0.768589882986073,3.7,4.6,0.00,0.00,0.00,0,0
1999,120,14.9,4.2,8.3,0.82478058998621,6.5,0.8,0.00,0.00,0.00,0,0
1999,121,12.6,2.7,7.8,0.741783241658071,3,2,0.00,0.00,0.00,0,0
1999,122,21.4,1.6,9,0.685695074338206,2.1,0.3,0.00,0.00,0.00,0,0
1999,123,5.3,3,7.9,0.757766330097758,0.8,0.2,0.00,0.00,0.00,0,0
1999,124,23.6,1.9,12.6,0.700607395731375,1.3,10.4,0.00,0.00,0.00,0,0
1999,125,24.3,6.2,16.1,0.948136544453324,1.4,0.4,0.00,0.00,0.00,0,0
1999,126,25.3,6.4,16.2,0.961323338245264,1.7,0.3,0.00,0.00,0.00,0,0
1999,127,25.2,4.8,16.3,0.86020741349226,1.7,0.4,0.00,0.00,0.00,0,0
1999,128,20.5,5.1,17.2,0.878418853288568,1.6,0.4,0.00,0.00,0.00,0,0
1999,129,2.4,5.1,9.4,0.878418853288568,1.5,1.4,0.00,0.00,0.00,0,0
1999,130,3.4,3.8,5.7,0.801883779217918,1.5,24.3,0.00,0.00,0.00,0,0
1999,131,8.7,4,8.8,0.813261095826253,1.8,1.8,0.00,0.00,0.00,0,0
1999,132,14.4,5,9.5,0.872310960349712,1.4,0.2,0.00,0.00,0.00,0,0
1999,133,25.1,4.2,9.4,0.82478058998621,1.7,0.6,0.00,0.00,0.00,0,0
1999,134,27,2.8,10.5,0.747077546450387,2.6,0.4,0.00,0.00,0.00,0,0
1999,135,26.2,4.9,11.1,0.866240546166533,2.4,0.3,0.00,0.00,0.00,0,0
1999,136,23.6,5,12.4,0.872310960349712,3.1,0.4,0.00,0.00,0.00,0,0
1999,137,27.5,6,12.8,0.935109403393734,1.6,0.4,0.00,0.00,0.00,0,0
1999,138,27.9,5.6,13.7,0.909527462751512,2.2,0.7,0.00,0.00,0.00,0,0
1999,139,27.4,6.5,17.6,0.967977126816785,1.6,0.5,0.00,0.00,0.00,0,0
1999,140,26.8,9.1,20.3,1.1558393550368,1.6,0.4,0.00,0.00,0.00,0,0
1999,141,12.5,5.9,17.7,0.928655184057023,2.3,10.6,0.00,0.00,0.00,0,0
1999,142,11.1,5.2,10.5,0.884564423081917,3.9,3.9,0.00,0.00,0.00,0,0
1999,143,10.6,7.3,11.4,1.02268477506743,2.7,3,0.00,0.00,0.00,0,0
1999,144,9.5,7.1,10.3,1.00875864812438,2.4,2.5,0.00,0.00,0.00,0,0
1999,145,18.8,7,11.1,1.00185842597615,3,0.2,0.00,0.00,0.00,0,0
1999,146,5.4,7,9.9,1.00185842597615,1.7,8.8,0.00,0.00,0.00,0,0
1999,147,25.9,6.9,15.8,0.994999810113081,1.1,0.4,0.00,0.00,0.00,0,0
1999,148,18.3,9.5,22.7,1.18742053657885,1.2,1.9,0.00,0.00,0.00,0,0
1999,149,9.7,6.6,11.9,0.974671456630646,4.1,6,0.00,0.00,0.00,0,0
1999,150,28.8,6.4,12.5,0.961323338245264,2.9,0.4,0.00,0.00,0.00,0,0
1999,151,28,5.6,10.9,0.909527462751512,2.6,0.4,0.00,0.00,0.00,0,0
1999,152,26.9,7.2,13.3,1.01570069227793,1.7,0.3,0.00,0.00,0.00,0,0
1999,153,18.7,8.2,14.5,1.08746945717719,1.4,0.4,0.00,0.00,0.00,0,0
1999,154,3.3,8.5,14.4,1.10985289088904,1.3,3.1,0.00,0.00,0.00,0,0
1999,155,4.2,9.4,12.6,1.17945491737072,1.3,1.1,0.00,0.00,0.00,0,0
1999,156,25.9,9.5,14.9,1.18742053657885,1.7,1.7,0.00,0.00,0.00,0,0
1999,157,7.7,8.7,12.7,1.12499949531261,0.8,10.7,0.00,0.00,0.00,0,0
1999,158,19.3,8.9,14.1,1.14032769784963,1.8,6.2,0.00,0.00,0.00,0,0
1999,159,7.7,10.1,16.2,1.23621552243184,1.9,11.5,0.00,0.00,0.00,0,0
1999,160,8,8.4,13.6,1.10234711198881,0.9,9.4,0.00,0.00,0.00,0,0
1999,161,20.2,7.1,16.5,1.00875864812438,1.9,0.5,0.00,0.00,0.00,0,0
1999,162,15.4,9.8,17.5,1.21160202659855,1.4,0.8,0.00,0.00,0.00,0,0
1999,163,9.5,10,15,1.22796261933938,1.3,2.3,0.00,0.00,0.00,0,0
1999,164,23.2,8.4,14.8,1.10234711198881,1.7,0.5,0.00,0.00,0.00,0,0
1999,165,13,10.4,15.5,1.26126759303422,1.7,2.1,0.00,0.00,0.00,0,0
1999,166,15.1,10,16.5,1.22796261933938,2,0.7,0.00,0.00,0.00,0,0
1999,167,14.9,9.2,17.5,1.16366456349903,1.5,0.2,0.00,0.00,0.00,0,0
1999,168,20.3,8.8,13.5,1.13264078114313,3.9,21,0.00,0.00,0.00,0,0
1999,169,27.3,7.2,14.8,1.01570069227793,1.9,0.7,0.00,0.00,0.00,0,0
1999,170,2.7,10.5,12.9,1.26971689129418,2.2,24.5,0.00,0.00,0.00,0,0
1999,171,12.4,7.4,12.8,1.02971111403679,4.9,22.1,0.00,0.00,0.00,0,0
1999,172,22.2,6.7,12.1,0.981406538897068,4.1,6.8,0.00,0.00,0.00,0,0
1999,173,20.8,7.9,12.1,1.06548432990747,4.5,0.5,0.00,0.00,0.00,0,0
1999,174,22.6,9.1,13.2,1.1558393550368,4.3,0.1,0.00,0.00,0.00,0,0
1999,175,24,8.7,13.1,1.12499949531261,4.2,0.1,0.00,0.00,0.00,0,0
1999,176,25,6.8,17,0.988182585722631,1.5,0.3,0.00,0.00,0.00,0,0
1999,177,15.3,9.9,18.1,1.21975820182551,1.6,0.5,0.00,0.00,0.00,0,0
1999,178,18.6,10.6,19.8,1.27821590656944,1.3,0.2,0.00,0.00,0.00,0,0
1999,179,5.4,12.1,18.1,1.41183913248384,1.5,7.9,0.00,0.00,0.00,0,0
1999,180,18.3,10.4,16.5,1.26126759303422,1.3,2,0.00,0.00,0.00,0,0
1999,181,12.8,10.1,15.8,1.23621552243184,2,0.5,0.00,0.00,0.00,0,0
1999,182,4.8,11.6,14.2,1.36599584557115,2.6,20.3,0.00,0.00,0.00,0,0
1999,183,14.5,9.8,13.6,1.21160202659855,2,0.9,0.00,0.00,0.00,0,0
1999,184,24.7,9.2,17.8,1.16366456349903,1.3,0.2,0.00,0.00,0.00,0,0
1999,185,3.2,13,16.1,1.49777090275698,1.3,10.6,0.00,0.00,0.00,0,0
1999,186,11.7,11.8,18.2,1.38417378318429,1.6,0.2,0.00,0.00,0.00,0,0
1999,187,24.2,11.5,16,1.35698578037907,3.3,0.1,0.00,0.00,0.00,0,0
1999,188,29.7,9.5,15.4,1.18742053657885,2.9,0.1,0.00,0.00,0.00,0,0
1999,189,27.8,9.8,18.5,1.21160202659855,1.7,0.2,0.00,0.00,0.00,0,0
1999,190,27.7,12.6,20,1.4590281988655,1.5,0.2,0.00,0.00,0.00,0,0
1999,191,28.7,12.7,21.7,1.46863044193649,1.2,0.2,0.00,0.00,0.00,0,0
1999,192,28.7,13.3,20.6,1.52741771290267,2.6,0.2,0.00,0.00,0.00,0,0
1999,193,26,12.3,18.7,1.43055140441221,2.2,0.2,0.00,0.00,0.00,0,0
1999,194,26.8,11.8,17.8,1.38417378318429,1.6,0.1,0.00,0.00,0.00,0,0
1999,195,12.8,12.3,17.4,1.43055140441221,2.8,5.8,0.00,0.00,0.00,0,0
1999,196,19.1,10.3,15.5,1.25286776349517,2.5,1.1,0.00,0.00,0.00,0,0
1999,197,24.8,9.4,16.5,1.17945491737072,1.2,0.2,0.00,0.00,0.00,0,0
1999,198,14.1,12.5,18.5,1.44948112482845,1.4,2.6,0.00,0.00,0.00,0,0
1999,199,16.3,14.1,17.6,1.6090084391754,2.5,1.7,0.00,0.00,0.00,0,0
1999,200,17.1,14.2,21.7,1.61947137042537,1,1.4,0.00,0.00,0.00,0,0
1999,201,6.1,15.7,19.3,1.78373583124367,1.6,12.9,0.00,0.00,0.00,0,0
1999,202,5.3,12.7,16.1,1.46863044193649,3.3,21.7,0.00,0.00,0.00,0,0
1999,203,15.9,11.3,16.2,1.33912215939985,4.5,0.6,0.00,0.00,0.00,0,0
1999,204,6.8,10.4,13.8,1.26126759303422,2.9,13.8,0.00,0.00,0.00,0,0
1999,205,12.7,11.5,15.4,1.35698578037907,3.3,6.2,0.00,0.00,0.00,0,0
1999,206,15,9.5,13.9,1.18742053657885,4.1,2.8,0.00,0.00,0.00,0,0
1999,207,20.4,8.9,13.7,1.14032769784963,3.8,0.1,0.00,0.00,0.00,0,0
1999,208,26.8,8.4,15.5,1.10234711198881,3.4,0.1,0.00,0.00,0.00,0,0
1999,209,21.7,10,17.4,1.22796261933938,1.9,0.1,0.00,0.00,0.00,0,0
1999,210,7.9,9.5,13.3,1.18742053657885,0.9,0.3,0.00,0.00,0.00,0,0
1999,211,12.3,11.2,14.1,1.33026808760019,1.8,0.4,0.00,0.00,0.00,0,0
1999,212,25.7,9.8,19.8,1.21160202659855,1.2,0.1,0.00,0.00,0.00,0,0
1999,213,24.4,13.1,25,1.5075965447621,1.2,0.3,0.00,0.00,0.00,0,0
1999,214,24,16.1,26,1.82993324442649,1.1,0.2,0.00,0.00,0.00,0,0
1999,215,22.1,15.5,25.4,1.76102289812009,1.3,0.2,0.00,0.00,0.00,0,0
1999,216,24,16,24.5,1.81828668048555,1.1,0.2,0.00,0.00,0.00,0,0
1999,217,24.3,14.7,23.3,1.67268640718181,1.5,0.2,0.00,0.00,0.00,0,0
1999,218,19.7,12.8,18,1.47828812524328,2,0.2,0.00,0.00,0.00,0,0
1999,219,20.2,11.7,19.3,1.37505842630393,1.3,0.1,0.00,0.00,0.00,0,0
1999,220,11.4,14.4,20.8,1.64057643924844,1.1,0.1,0.00,0.00,0.00,0,0
1999,221,18.5,10.2,17.2,1.24451715538916,2.1,0.1,0.00,0.00,0.00,0,0
1999,222,20.6,9.5,15,1.18742053657885,2.8,0.2,0.00,0.00,0.00,0,0
1999,223,9.4,10.3,13.5,1.25286776349517,3,0,0.00,0.00,0.00,0,0
1999,224,19.6,10.6,15.8,1.27821590656944,1.9,0.1,0.00,0.00,0.00,0,0
1999,225,15.8,10.4,16,1.26126759303422,1.2,0.1,0.00,0.00,0.00,0,0
1999,226,6.6,12.6,16.3,1.4590281988655,2.4,7.4,0.00,0.00,0.00,0,0
1999,227,8.1,11.9,17.7,1.39334217786484,1.2,12.7,2.11,1.02269880432681,0.813563123283242,1.25892541179417,0
1999,228,9.1,11.5,16.7,1.35698578037907,0.5,12.7,2.14,1.03411299211247,0.824545561789908,1.26956549334671,0
1999,229,12.4,10.1,16.9,1.23621552243184,0.8,0.2,2.90,1.39433672413226,1.1246953089378,1.27961979954581,0
1999,230,15.8,9,19.1,1.14806047797811,1.1,3,3.88,1.8544835185322,1.51703574934791,1.28930387280444,0
1999,231,12.3,12.3,20.2,1.43055140441221,1.4,0.5,3.25,1.54399353665659,1.28126768331445,1.30036313797943,0
1999,232,12.4,10.9,15.9,1.30401375259097,3.1,0.1,3.08,1.4526110219627,1.22188108654786,1.31346811015277,0
1999,233,17.3,9.3,14,1.17153633880621,4.9,0.2,4.05,1.90271015590634,1.61612871690072,1.32446881145557,0
1999,234,21.4,8.1,14.9,1.0800971266534,3.6,0.2,4.90,2.29731069479814,1.96545743656404,1.33316175179768,0
1999,235,15.4,8.4,14.8,1.10234711198881,2.9,0.1,3.63,1.69239668566253,1.46488544419028,1.34190084282399,0
1999,236,20.2,9.2,16.8,1.16366456349903,2.2,0.2,4.68,2.17833986841919,1.89307760072865,1.35088951516633,0
1999,237,13.5,10,19.5,1.22796261933938,1.1,0.1,3.43,1.58354478571931,1.39796747383594,1.36109481994802,0
1999,238,3.9,14.8,18.5,1.68351152803309,2.2,8.3,1.25,0.56781488333393,0.516753845555746,1.37407442543449,0
1999,239,4.7,12.5,15.5,1.44948112482845,2.5,2.3,1.29,0.584963308569017,0.535286874857285,1.38796722605089,0
1999,240,16.3,11.8,18.6,1.38417378318429,2,0.4,4.01,1.82087781992376,1.66404082117394,1.39973192573957,0
1999,241,14.9,11.2,17.5,1.33026808760019,1.5,0.1,3.53,1.59427921073985,1.47151927466901,1.41184638014588,0
1999,242,14.6,11.3,15.3,1.33912215939985,1.6,7,3.21,1.44714347759606,1.343512883155,1.42322857549769,0
1999,243,19,10,15.7,1.22796261933938,2.2,0.2,4.25,1.90433816189562,1.79128535073755,1.4334533364398,0
1999,244,3.8,10.7,15.8,1.28676488816384,1.2,2.9,1.14,0.503157725499869,0.49082522806063,1.44316364890686,0
1999,245,5.5,15.1,18.8,1.71635640770194,2.1,0.2,1.58,0.695037901998632,0.677748763826858,1.45393482119389,0
1999,246,12.9,15.9,19.8,1.80670512903275,2.2,0.1,3.22,1.42053402761425,1.38177292278449,1.46740460084483,0
1999,247,5.9,15.8,19,1.79518828168672,1.4,0.1,1.56,0.679305749382084,0.674211292432932,1.48153691712147,0
1999,248,16.5,13.7,23,1.56774736920689,0.8,0.2,4.23,1.84011116598035,1.84139683847566,1.49507081493221,0
1999,249,8.7,15.4,23.7,1.74976180689098,1,0,2.59,1.11007052825711,1.14043027479636,1.50962240119052,0
1999,250,0.9,16,20,1.81828668048555,2.4,0.1,0.69,0.28583888525286,0.315378447665962,1.52403985203065,0
1999,251,8.33,11.2,16,1.33026808760019,2.88,4.37,2.23,0.941185353934481,0.994238372386746,1.53810959241674,0
1999,252,9.69,10.7,12.2,1.28676488816384,0.6,0,1.90,0.80946446333629,0.839552400691951,1.54756101431314,0
1999,253,15,9.9,17.3,1.21975820182551,1.1,0.2,3.48,1.47150409915956,1.55741718163032,1.55494805869814,0
1999,254,13.2,11.5,22.2,1.35698578037907,2.2,0.1,3.89,1.62187228302186,1.75910242981462,1.56375428147153,0
1999,255,11.2,18.3,22.3,2.10324508484466,2.4,0.1,3.02,1.25974045766057,1.36318500351763,1.57714004794645,0
1999,256,4.1,14.7,20,1.67268640718181,1.8,6,1.41,0.578371386621077,0.651620735194524,1.59185016791944,0
1999,257,1.6,14,17.5,1.59860485942529,1.4,1.6,0.65,0.261531414216327,0.302069993892857,1.60443815137751,0
1999,258,3.8,14,17.7,1.59860485942529,0.2,0.1,0.99,0.405834549673307,0.456866588207763,1.61472955550607,0
1999,259,3.7,13.9,17.1,1.58826034462015,1,2.1,1.01,0.409845867434014,0.46786272274729,1.62476753602242,0
1999,260,7.7,10.5,15.8,1.26971689129418,1.4,3.3,1.93,0.781558484737359,0.897250132329411,1.63447049008156,0
1999,261,12,11.3,18.2,1.33912215939985,1.1,0.9,2.93,1.18645502454641,1.3634256711364,1.64237345188003,0
1999,262,5,14.1,17.1,1.6090084391754,1.9,1.2,1.34,0.536528137290823,0.625948234366444,1.65137054772001,0
1999,263,9.6,15.5,19.6,1.76102289812009,2.9,0.1,2.60,1.03849941596528,1.21894244673115,1.66116593357641,0
1999,264,0.9,13.5,18.1,1.54746724277946,2,3.1,0.68,0.259474287511407,0.327791301528154,1.6721453051041,0
1999,265,3.9,12.7,17.4,1.46863044193649,0.7,1,1.11,0.437640437238303,0.528156928770757,1.68185044583481,0
1999,266,7.2,13.8,18.1,1.57797460932204,0.8,7.4,1.79,0.70944624834251,0.849960335225074,1.69008452500432,0
1999,267,4.4,11.9,17.7,1.39334217786484,0.8,5.5,1.29,0.502926796176751,0.617956292608915,1.69900546800475,0
1999,268,6.6,11.4,15.9,1.34802797116349,1.2,0.1,1.65,0.645225682613501,0.788575508813048,1.70682243453975,0
1999,269,5.6,11.2,16.1,1.33026808760019,0.8,5.7,1.43,0.557759336101384,0.687624165538841,1.714206738001,0
1999,270,4.9,9.6,14.6,1.19543343479378,1.2,26.3,1.31,0.504938182725085,0.630429344371615,1.72062102624453,0
1999,271,6.9,8.7,14.2,1.12499949531261,1.7,0.6,1.76,0.678477780703128,0.849056820270124,1.72632735902486,0
1999,272,4.4,9.2,14.3,1.16366456349903,0.7,1.4,1.14,0.440685664665414,0.554426379612716,1.73103526918485,0
1999,273,2.2,10.7,12.9,1.28676488816384,0.7,19.4,0.56,0.214449229374084,0.270327023617021,1.73615144391005,0
1999,274,4.4,7.5,11.1,1.03677992764607,1.2,27.5,1.03,0.396151835585204,0.501029031836675,1.74135985286601,0
1999,275,3.3,7.1,9.8,1.00875864812438,1,32.4,0.75,0.286147083021287,0.36231513759172,1.74413967467217,0
1999,276,6.7,7.7,12.1,1.05104585722233,1.8,14.7,1.58,0.604609359034975,0.765529234963402,1.74409357783075,0
1999,277,9.7,7.4,12.8,1.02971111403679,2.9,8.6,2.34,0.896168958835712,1.14009198158032,1.74735480753586,0
1999,278,10.2,6.8,11.7,0.988182585722631,2.9,0.3,2.32,0.889652333456057,1.13148834336644,1.75083779900621,0
1999,279,8.6,5.1,12.8,0.878418853288568,0.9,0.4,1.96,0.749048454931521,0.954540009358357,1.75225096492433,0
1999,280,1.7,6.8,11.3,0.988182585722631,0.9,13.5,0.59,0.219850381183292,0.289212298323488,1.75212375234023,0
1999,281,7.6,7.3,10.8,1.02268477506743,2.6,3.4,1.69,0.646639771333676,0.822236884913111,1.75276093480669,0
1999,282,7,5.5,9.5,0.903229187415273,2.2,4.4,1.53,0.58353227450156,0.7448798477951,1.7544092429545,0
1999,283,2.4,6.4,10.9,0.961323338245264,1.7,11.8,0.78,0.294322653555106,0.386042593000193,1.75197107731104,0
1999,284,4.9,7.3,11,1.02268477506743,7.8,3.5,1.70,0.639544731109845,0.841655176520003,1.75210103723679,0
1999,285,5.7,7.4,10.9,1.02971111403679,7.7,6.6,1.79,0.673883358418832,0.883166420679472,1.75502781602792,0
1999,286,1.2,9,11.7,1.14806047797811,4.9,21.8,0.67,0.248571735842676,0.336177165299091,1.75767095260655,0
1999,287,7.2,8.2,13,1.08746945717719,3.3,1.1,1.90,0.72074876172968,0.934551322430733,1.7615098251882,0
1999,288,7.7,6.4,13.4,0.961323338245264,0.7,0.5,1.78,0.676180399325519,0.870562187655681,1.76552960695673,0
1999,289,3.7,6,11.7,0.935109403393734,0.5,0.2,0.94,0.356328631124756,0.46520095935225,1.76832210001652,0
1999,290,5.5,5,10.6,0.872310960349712,0.8,0.3,1.25,0.473663678208476,0.613695477670807,1.76828854962685,0
1999,291,5.7,3.1,11.1,0.763161169701315,0.7,0.4,1.36,0.514927933939388,0.670176441287939,1.76622033944578,0
1999,292,4.3,3.9,10.4,0.807554759869014,0.8,0.4,1.08,0.406761150317927,0.529530162301934,1.76213781606657,0
1999,293,7.1,3.1,9.9,0.763161169701315,1.4,0.5,1.61,0.610785913976204,0.786741142136442,1.75784174347964,0
1999,294,3.9,3.1,7.8,0.763161169701315,2.2,0.4,1.01,0.380915902247501,0.494838593591148,1.75206238514438,0
1999,295,2.9,5.7,8.6,0.915864418312889,3.7,0.3,0.84,0.318961804080895,0.414141677765204,1.74583207155101,0
1999,296,1.7,7.7,10.8,1.05104585722233,3,0.5,0.66,0.247857271980225,0.325776079277751,1.74322530277825,0
1999,297,2.9,9.2,11.8,1.16366456349903,2.3,1.5,0.79,0.302771443522756,0.38847916244668,1.74547771542923,0
1999,298,2.6,9.7,13.1,1.20349385135844,1.4,3.3,0.76,0.288686789393437,0.373095366292174,1.74989617196918,0
1999,299,2,8.4,11.6,1.10234711198881,2.7,11.3,0.71,0.267825701473037,0.353324233792544,1.75464009289657,0
1999,300,1.8,6.2,10.6,0.948136544453324,2,5.6,0.70,0.259997008036442,0.346534200419625,1.75805022968235,0
1999,301,3.9,8.1,10.9,1.0800971266534,6,7.4,1.22,0.4595458905051,0.60295384583613,1.75735627458195,0
1999,302,2.6,8.1,10.6,1.0800971266534,2.8,0.1,0.74,0.278538549116933,0.36407120395489,1.76090197079594,0
1999,303,3.5,10.3,12.9,1.25286776349517,2.8,0.5,0.96,0.363840833136883,0.473023766618445,1.76323199116991,0
1999,304,1.7,9.7,12,1.20349385135844,5.1,12.9,0.72,0.266304848198127,0.358342406789044,1.76789485437143,0
1999,305,0.7,8.8,11.1,1.13264078114313,4.8,10.4,0.51,0.184910269828726,0.255528224222091,1.77191890418464,0
1999,306,2.9,7.1,10.6,1.00875864812438,5,1.8,1.07,0.398354453068566,0.53094589656951,1.76223055233616,0
1999,307,1.2,6.7,10.8,0.981406538897068,3.4,1.5,0.71,0.261289178054153,0.356645363344068,1.76403853807903,0
1999,308,1,9.8,10.9,1.21160202659855,3,0,0.32,0.119164791083571,0.157512257993065,1.76659156718533,0
1999,309,1.3,7.6,11,1.0438914352743,3.2,0.2,0.64,0.235720605422113,0.320944988552378,1.77055661748568,0
1999,310,0.8,7.5,11.1,1.03677992764607,1.8,0.1,0.45,0.166725519735893,0.228845673994214,1.77304446579696,0
1999,311,3.2,6.3,11.4,0.954709880599415,0.6,0.4,0.84,0.318404852881284,0.412702742791454,1.75711216118174,0
1999,312,0.5,7.5,9.7,1.03677992764607,1,7.6,0.24,0.0877810453211513,0.118082417634097,1.75744508438904,0
1999,313,2.3,4.8,9.7,0.86020741349226,2.5,1.4,0.85,0.320051881600144,0.419661645820823,1.73987063354514,0
1999,314,2.7,3,7.9,0.757766330097758,1.1,0.3,0.72,0.275103849360655,0.353837765201275,1.73732347913932,0
1999,315,2.8,5.9,9.7,0.928655184057023,1.6,0.3,0.77,0.294036342194766,0.374751458082515,1.73073180575963,0
1999,316,0.9,6.9,9.5,0.994999810113081,1.9,0,0.38,0.144420663747275,0.188643988272759,1.72853041402286,0
1999,317,0.5,4.5,9.7,0.842329744778648,4.3,1.2,0.78,0.291080285068121,0.39004258998367,1.71545496769775,0
1999,318,2.7,2.4,5.7,0.726098527572168,1.8,0.7,0.65,0.252324010842371,0.312256653990708,1.69830041802078,0
1999,319,1.2,3.6,7.5,0.790647132440971,2.2,11.8,0.52,0.201270265959112,0.254958192909213,1.68752023591676,0
1999,320,1.4,2.3,5.2,0.720935764288931,0.6,6.7,0.35,0.137791309960063,0.168114850098445,1.67748746823604,0
1999,321,1.1,0.8,3.3,0.647290774275056,3.3,6.9,0.40,0.156549969257474,0.193129982890946,1.66071259355368,0
1999,322,2.4,-0.4,4,0.593246259519146,1.2,0.5,0.58,0.230800874419063,0.273971945009772,1.64410546761815,0
1999,323,2.2,-1.3,4.9,0.55537203217068,0.7,0.5,0.59,0.235215721516197,0.27703583917647,1.62766441294197,0
1999,324,1.4,-2.2,2.9,0.519653242030189,0.8,0.3,0.42,0.167375475446875,0.196158973637638,1.61138776881255,0
1999,325,1.1,2.2,4.7,0.715805444331265,0.4,0.3,0.28,0.112298915231104,0.127348609553861,1.59527389112442,0
1999,326,0.5,3.6,5,0.790647132440971,0.8,9.8,0.15,0.0630130099694218,0.0715770451043475,1.58370728092869,0
1999,327,1.3,2.9,8.6,0.752405182604831,1.2,0.4,0.57,0.23116743093041,0.262899211170782,1.56787020811941,0
1999,328,0.2,8,9.2,1.07276882588113,2.8,20.3,0.17,0.0693634338672519,0.0801746423734868,1.56348181596718,0
1999,329,1,5,8.4,0.872310960349712,2.2,1.7,0.47,0.192866338084894,0.215730367754582,1.5478469978075,0
1999,330,0.3,6.2,9.6,0.948136544453324,4.7,3.1,0.57,0.228276467006447,0.263426162680788,1.54671133056401,0
1999,331,1.3,4.4,8.3,0.836443782617892,4.8,0.8,0.78,0.31980913013742,0.355643484452246,1.53124421725837,0
1999,332,0.1,6.7,9.9,0.981406538897068,6.2,18.6,0.62,0.25212351257475,0.28842182958944,1.52900270581793,0
1999,333,1.1,0.8,9.9,0.647290774275056,6.2,1.5,1.60,0.658600580442154,0.735285204934643,1.51371267875975,0
1999,334,0.2,1.3,9.7,0.671063852424105,6.9,15.9,1.49,0.612972058213858,0.682430316375493,1.49930505313438,0
1999,335,0.7,-0.3,7.5,0.59759233883635,8,6,1.55,0.642667830826759,0.70132246314169,1.48431200260304,0
1999,336,0.9,0.2,4.1,0.619747868264412,3.2,2.5,0.50,0.211906874710794,0.222732895622141,1.46946888257701,0
1999,337,0.1,-0.5,2.1,0.588928157025839,1.6,10.2,0.18,0.0754166288601414,0.0799175571548244,1.45477419375124,0
1999,338,0.3,-3.8,1.1,0.461146620000629,0.5,16.1,0.22,0.0959671321644091,0.0991504938313779,1.44022645181372,0
1999,339,0.2,-3.5,3.7,0.471649742534296,2.2,3.3,0.51,0.218529117287594,0.225807069023206,1.42582418729559,0
1999,340,0.3,3.4,9.3,0.779549660889396,5.1,26.3,0.92,0.395186237079211,0.402562710235504,1.41156594542263,0
1999,341,0.8,3.3,6.9,0.774052652323659,4.1,3.6,0.58,0.252718486625654,0.248737126289771,1.3974502859684,0
1999,342,0.7,3.9,7.2,0.807554759869014,2.7,19,0.43,0.191903271990624,0.185361097312629,1.38347578310872,0
1999,343,0.4,3.5,6.4,0.785081092664949,2,19,0.30,0.132911901137166,0.127366730756511,1.36964102527763,0
1999,344,0.5,2.7,4.7,0.741783241658071,3.8,4.4,0.31,0.13810265553893,0.129964106784901,1.35594461502486,0
1999,345,0.8,-0.2,3.1,0.601966550846925,1.6,0.1,0.32,0.146294404698808,0.134102503124716,1.34238516887461,0
1999,346,0.5,-0.8,1.8,0.576140162457148,0.6,0.3,0.18,0.0834192300758507,0.0752078087005773,1.32896131718586,0
1999,347,0.6,-1.9,0.9,0.53132668070862,1.2,0,0.23,0.103732346499932,0.0925262627525245,1.315671704014,0
1999,348,0.9,-4.4,-0.8,0.440760122900955,0.7,0,0.25,0.11642464457951,0.101393145173512,1.30251498697386,0
1999,349,1,-5.7,-0.6,0.399307067341793,0.9,0.1,0.33,0.151614415452049,0.131382686383325,1.28948983710412,0
1999,350,0.3,-1.1,5.4,0.563598416057571,2,13.2,0.50,0.229663120542172,0.202980450515366,1.27659493873308,0
1999,351,0.6,-1.5,6.7,0.547252071920288,10,12.1,1.84,0.850561921860789,0.745149675869433,1.26382898934575,0
1999,352,0.7,-3.2,2.5,0.482364242170942,9.7,4.8,1.19,0.556625555943219,0.479369080218361,1.25119069945229,0
1999,353,0.9,-0.2,2.7,0.601966550846925,5.5,2.9,0.52,0.246991236232084,0.2056875509385,1.23867879245777,0
1999,354,0.9,-4.7,1.7,0.430869683900069,2.1,0.3,0.51,0.243101719505832,0.200227832691963,1.22629200453319,0
1999,355,0.5,-4.4,3.4,0.440760122900955,1.3,3.4,0.46,0.219345679620484,0.179988656532056,1.21402908448786,0
1999,356,0.3,1.4,5.1,0.67590997623516,2.6,15.3,0.37,0.17758918777961,0.144148392627535,1.20188879364298,0
1999,357,0.7,1.2,7.2,0.666248454052236,3.9,9.6,0.79,0.380144832976714,0.303865705349823,1.18986990570655,0
1999,358,0.3,5.7,7.3,0.915864418312889,4.1,21.3,0.27,0.1301627226663,0.10204963251646,1.17797120664949,0
1999,359,0.3,4.3,7.9,0.830594128417611,6.2,20.2,0.68,0.331506552795866,0.260097060729411,1.16619149458299,0
1999,360,0.7,1.9,6,0.700607395731375,3,5.2,0.51,0.249999340064516,0.190285617532597,1.15452957963716,0
1999,361,0.5,1.2,2.4,0.666248454052236,1.1,3,0.14,0.0704443078537959,0.0510152155669395,1.14298428384079,0
1999,362,0.7,0,2,0.6108,0.2,1.7,0.17,0.0876096840425583,0.0622148205314413,1.13155444100238,0
1999,363,1,0.4,2.3,0.628811428473615,0.7,0.1,0.23,0.118043243167808,0.0822585116562618,1.12023889659236,0
1999,364,0.9,0.9,3,0.651984939356404,0.5,0.3,0.22,0.114325449962382,0.0794267136720106,1.1145037548632,0
1999,365,0.4,2.8,5.9,0.747077546450387,1.3,2.8,0.26,0.133529472260939,0.0961225088869553,1.10882596455112,0
2000,1,1.2,4.7,6.9,0.854211365929442,2.5,15.6,0.40,0.207469222141154,0.144337054043036,1.10572114729386,0
2000,2,0.8,3.5,7.2,0.785081092664949,4.7,6,0.64,0.324303482366709,0.23367415978675,1.10595424527684,0
2000,3,1.1,3.4,7.7,0.779549660889396,5.2,8.4,0.82,0.413562994032703,0.297261720000138,1.10567626350034,0
2000,4,1.4,2.6,5.7,0.736522089044698,4.5,3.2,0.62,0.315325256730475,0.223073038141986,1.10590981032124,0
2000,5,0.6,2,6.8,0.705641434144028,3.3,8.1,0.59,0.299185900321043,0.215775870925427,1.10232540582661,0
2000,6,0.5,2.5,7.8,0.731293910217631,5.7,9.5,0.90,0.454549714250032,0.329832327063657,1.10030309171582,0
2000,7,0,4,7.1,0.813261095826253,4.1,10.4,0.40,0.199787210360285,0.146640865662161,1.1008447446443,0
2000,8,1,4.7,7.6,0.854211365929442,6.7,0.9,0.71,0.362445967083378,0.255229638955137,1.08983629719786,0
2000,9,1.1,3.4,5.5,0.779549660889396,3.5,2.9,0.41,0.209731813137244,0.144622116535918,1.09175449002059,0
2000,10,0.3,2.2,6.7,0.715805444331265,3.9,12.7,0.57,0.290339210715538,0.207873188320478,1.08831163872889,0
2000,11,0.7,4.8,6.7,0.86020741349226,2,0.8,0.27,0.142358813922231,0.096711945758524,1.07855974959842,0
2000,12,0.7,4.1,6.1,0.81900297596515,1.7,3.7,0.26,0.136865762092781,0.0929172073779333,1.07881008716823,0
2000,13,0.6,1.9,4.2,0.700607395731375,0.6,0,0.20,0.104536510093891,0.0707436761883059,1.07829479819286,0
2000,14,1.5,-1.2,3.5,0.559471846470215,0.6,0.3,0.41,0.21626550679831,0.143379068384678,1.06751185021093,0
2000,15,0.6,-2.4,3.7,0.511997642400919,0.7,1.8,0.35,0.180999089498875,0.123278552041465,1.06230397894466,0
2000,16,0.3,3.6,7.3,0.790647132440971,5.2,0.7,0.60,0.31155395742335,0.213484796848089,1.0517831932293,0
2000,17,1.4,6.3,7.3,0.954709880599415,10.3,0.8,0.52,0.271920702228373,0.178113586596352,1.05255567074506,0
2000,18,1.9,1.4,6.9,0.67590997623516,7.7,0.6,1.33,0.690548959866062,0.467435499533983,1.05586416738206,0
2000,19,0.9,1.4,6.2,0.67590997623516,3.6,0.5,0.65,0.339900711949917,0.228944745442795,1.05077277294085,0
2000,20,1.2,2.4,6.5,0.726098527572168,7.6,1.3,0.98,0.509371137367998,0.341766645196923,1.04573229244378,0
2000,21,0.9,-0.9,3,0.571932422764292,3.3,2.7,0.49,0.255240130233845,0.169669455011475,1.0445302838493,0
2000,22,1.1,-1.6,1.4,0.543231628934308,0.7,3.4,0.28,0.148578582685723,0.0943452496859048,1.03408498101081,0
2000,23,0.9,-3.6,-0.4,0.468125394606022,0.7,0.1,0.24,0.128941634239879,0.0817859501157615,1.02665166737476,0
2000,24,1.3,-1.4,2.4,0.551298823607802,0.6,0.2,0.34,0.182700766214612,0.113538559489155,1.01638515070101,0
2000,25,1.9,-2.9,2.3,0.493293779199101,1.5,0.2,0.54,0.290419878403387,0.180672278895175,1.01168854638971,0
2000,26,1.3,0.5,5.6,0.633386993995039,2.6,2.5,0.63,0.334689990183115,0.210937358593265,1.00703890811833,0
2000,27,1.6,1.2,6.2,0.666248454052236,5.3,2.7,0.94,0.503759209942461,0.317709866927597,1.00266259186841,0
2000,28,1,1.3,5.9,0.671063852424105,2.2,6.6,0.52,0.276878723429175,0.173531345578487,1.00112815704492,0
2000,29,1.5,0.1,6.9,0.615259552462772,8.2,19.8,1.52,0.810279518702941,0.513916396694485,0.99658412266409,0
2000,30,2.3,-1.9,4.1,0.53132668070862,8,3.3,1.36,0.725763977947638,0.454463260692679,0.994856098144629,0
2000,31,2.1,-1.2,3.7,0.559471846470215,1.8,11.6,0.61,0.332188065005739,0.200715912309361,0.990374784352548,0
2000,32,0.8,-0.1,6.2,0.606369052134635,2.8,7.8,0.67,0.358925939515484,0.223775651803959,0.985938283696496,0
2000,33,1.5,0.8,5.4,0.647290774275056,7.7,4.9,1.07,0.577092715560484,0.356422241753414,0.981546148044478,0
2000,34,3.5,0.7,5.5,0.642626504140032,2.4,0.7,0.91,0.499411920971397,0.293225602178335,0.977197933748708,0
2000,35,0.2,5.5,7.8,0.903229187415273,5.1,30.3,0.40,0.212394479809591,0.1317020169573,0.972893201595783,0
2000,36,0.8,6.2,7.8,0.948136544453324,3.4,3.1,0.33,0.179297475845971,0.107080941836291,0.974866022022832,0
2000,37,1.8,4.7,6.9,0.854211365929442,2.4,2,0.50,0.272486635113929,0.160114861187304,0.979460163799832,0
2000,38,2.3,3.1,6.6,0.763161169701315,4.9,4.9,0.86,0.464650583818997,0.27938429323363,0.981464620285056,0
2000,39,1.3,2.9,5.4,0.752405182604831,1.1,3.4,0.35,0.192827440557956,0.113839693792219,0.981159662718802,0
2000,40,4.3,2.8,6.1,0.747077546450387,3,2.3,1.00,0.548477830588288,0.318596752521442,0.978568385241554,0
2000,41,0.7,2.1,6.3,0.710707392442634,6,14.8,0.78,0.417005877219791,0.257792363080893,0.975748646151492,0
2000,42,1.6,2.5,6.4,0.731293910217631,5.3,1.5,0.82,0.444284141138292,0.269243266362183,0.976009597100668,0
2000,43,1,0.8,5.9,0.647290774275056,4.2,11.7,0.75,0.403104181415273,0.247329799551905,0.975759189765486,0
2000,44,3.7,-1,4.4,0.567751891176205,6.8,4.3,1.37,0.745647891792565,0.44574197994089,0.972967542629765,0
2000,45,4.5,-2,2.9,0.527410004455476,1.6,5.9,0.90,0.49727966718481,0.285027644433347,0.968705114387036,0
2000,46,3.6,0.4,5.4,0.628811428473615,3.4,2.7,1.03,0.566741524618807,0.32955417614336,0.964485310424926,0
2000,47,3.4,0.4,3.8,0.628811428473615,1.4,0.1,0.70,0.386728999309692,0.218534823225892,0.960307704491729,0
2000,48,6.1,-0.8,4.1,0.576140162457148,1,0.1,1.11,0.621262375415545,0.345965805090928,0.956171874617228,0
2000,49,2.1,0.3,2.6,0.624265106870579,1.7,2.8,0.45,0.249251270248635,0.140092006182787,0.952077403039478,0
2000,50,6.3,-1,3.6,0.567751891176205,1.8,0.1,1.18,0.659911841605457,0.364883781292657,0.948023876172186,0
2000,51,6.9,-3,2.6,0.489626479059036,0.9,0.3,1.16,0.653832255278795,0.35799217192477,0.944010884570256,0
2000,52,3.3,-2.3,2.4,0.515812868329809,1.4,0.9,0.70,0.391672757008815,0.217491090816891,0.940038022879625,0
2000,53,2.9,1.4,3.6,0.67590997623516,0.3,0,0.51,0.290248348839676,0.156438227710616,0.93610488977628,0
2000,54,3.7,1,3,0.656709163989081,2.6,6.6,0.70,0.395091670430052,0.213602792044088,0.932211087994242,0
2000,55,6.5,1.4,5.9,0.67590997623516,3.3,9.3,1.44,0.811348898029741,0.440322852644251,0.928356224226987,0
2000,56,3,1.1,4.6,0.661463613522346,3.5,2.6,0.81,0.452596763705669,0.248890771476148,0.925529857884981,0
2000,57,3.2,3.6,6.3,0.790647132440971,2.3,0,0.74,0.420060046218662,0.226020377732594,0.921741806416183,0
2000,58,0.2,2.5,6.5,0.731293910217631,3.7,24.7,0.49,0.268155246701502,0.155667052691283,0.921270953706816,0
2000,59,5.3,2.8,6.3,0.747077546450387,4.7,0.7,1.30,0.734821962311586,0.395617799838666,0.918051099118543,0
2000,60,1.8,1.8,4.7,0.695605104272952,3.1,3.4,0.56,0.312186829695902,0.171088866407586,0.917108404714036,0
2000,61,4.8,-0.3,4.9,0.59759233883635,6.2,1.5,1.47,0.828093727829004,0.452258574514538,0.913404567776152,0
2000,62,4.4,-1.1,5,0.563598416057571,2.4,16.6,1.10,0.620625787779845,0.333014619952508,0.90973776920691,0
2000,63,5,0.8,3.3,0.647290774275056,8.9,3,1.23,0.699400598462717,0.373041571621512,0.906107638622034,0
2000,64,6.5,-3.5,0.9,0.471649742534296,5.1,2.6,1.32,0.750677691108224,0.396414452088049,0.902513809336033,0
2000,65,5.6,-3.5,4.4,0.471649742534296,2.2,5.6,1.29,0.732570989304146,0.386578990831298,0.898955918339512,0
2000,66,0.9,3.8,6.9,0.801883779217918,6.3,2.5,0.69,0.384688031932582,0.21170447384643,0.895433606149902,0
2000,67,6.3,1.8,5.6,0.695605104272952,4.6,0.1,1.44,0.825792134510866,0.430570197218551,0.897006455863548,0
2000,68,1.1,1.3,6.5,0.671063852424105,4.7,11.9,0.84,0.47152793117642,0.259302537798251,0.893984838271218,0
2000,69,10.3,-0.2,4.3,0.601966550846925,3.7,0.1,1.94,1.11515036164446,0.570238323937711,0.892010934342766,0
2000,70,3.2,-1.2,1.7,0.559471846470215,2.2,2.7,0.64,0.366395627740543,0.188570508604579,0.888558071927201,0
2000,71,4.9,0.7,4.9,0.642626504140032,1.2,4.3,0.97,0.557462819259761,0.282884555796054,0.885139738133631,0
2000,72,2.8,0.9,6.1,0.651984939356404,1.3,5.6,0.74,0.424470140638977,0.21916135684122,0.881755587664237,0
2000,73,2.7,4.1,6.4,0.81900297596515,3.7,6.4,0.71,0.406619206235218,0.208135711139189,0.879140853077265,0
2000,74,5.6,-1,4.6,0.567751891176205,7.6,2.6,1.76,1.0030018055446,0.52431304864168,0.880113507080637,0
2000,75,5.2,-2,4.6,0.527410004455476,3.4,3.4,1.33,0.765088896079583,0.393561581356071,0.876779618919807,0
2000,76,1.5,-0.1,5.9,0.606369052134635,2.6,2.2,0.72,0.41211611526577,0.217350693655738,0.873479069636768,0
2000,77,1.7,4.8,6,0.86020741349226,3.4,2.4,0.41,0.23888440186692,0.119971983938971,0.870211525834436,0
2000,78,13.2,2.4,8.3,0.726098527572168,4,0.4,2.82,1.63612031555162,0.814604023617841,0.872036596198507,0
2000,79,4.1,0.9,6.3,0.651984939356404,1.1,0,0.93,0.537732914953972,0.270362151178443,0.871554046494773,0
2000,80,5.4,3.6,8.1,0.790647132440971,3.4,0.2,1.38,0.798551053053931,0.40204791282144,0.869804450418743,0
2000,81,3.1,1.9,7.1,0.700607395731375,2.3,2.7,0.92,0.527460881740613,0.270232130682764,0.872396714655701,0
2000,82,9.9,0.8,5.2,0.647290774275056,1.9,1,1.78,1.03851864363528,0.51229168236157,0.871910563765435,0
2000,83,10.7,-1.2,4.2,0.559471846470215,1.3,3.2,1.81,1.05402682822767,0.516941553743031,0.868658705017238,0
2000,84,10.2,-1.7,5.9,0.539237347161083,2,0,1.98,1.15417336713886,0.570160152677359,0.865439364850258,0
2000,85,4.4,2.1,6.9,0.710707392442634,1.8,0.5,1.04,0.604344930781838,0.300155283639016,0.8622522180595,0
2000,86,3.2,0.9,4.4,0.651984939356404,0.9,4,0.65,0.381499223313381,0.187697161243383,0.860595640215113,0
2000,87,15.6,0.5,6.6,0.633386993995039,1.3,0,2.72,1.59828250111804,0.768104807972446,0.857456930660873,0
2000,88,11.5,-0.8,5.2,0.576140162457148,1.8,0,2.06,1.20599220596677,0.581790189953282,0.854830808192649,0
2000,89,11.7,1.7,7.3,0.690634387606814,1.4,0,2.19,1.28556292106244,0.615186844199181,0.851749746947163,0
2000,90,7.3,2.2,6.2,0.715805444331265,1.9,0,1.43,0.840432018481409,0.40335543505822,0.84968944503428,0
2000,91,7.5,3.9,6.5,0.807554759869014,3,0,1.47,0.863394231602662,0.411381273749932,0.847140997395509,0
2000,92,9.7,3.5,7.5,0.785081092664949,1.5,2.5,1.84,1.08745835926942,0.516321276600444,0.847416152296723,0
2000,93,1.8,-0.4,3.8,0.593246259519146,0.7,20,0.45,0.264067327439623,0.129915114743705,0.847179806905668,0
2000,94,6.6,-0.9,2.7,0.571932422764292,0.8,5.1,1.08,0.636880654378387,0.301218316976087,0.84417761491009,0
2000,95,15.8,-0.7,3.5,0.580375262589671,5.6,0.5,2.78,1.64172314659356,0.77759929478364,0.841209524564568,0
2000,96,12.5,-2.1,4,0.523518906262489,3.6,2.6,2.30,1.35632704961794,0.64346149854726,0.838275192704723,0
2000,97,13.2,3.5,7,0.785081092664949,5.8,0,2.68,1.58256889488328,0.743818722735783,0.835374279516907,0
2000,98,12.8,4.4,8.8,0.836443782617892,2.6,0.1,2.56,1.51497264775194,0.70973628204923,0.83707774544992,0
2000,99,4.9,3,6.5,0.757766330097758,1.3,5.8,1.00,0.589519633848273,0.279824463789685,0.840576333008613,0
2000,100,18.3,2.2,9.2,0.715805444331265,1.7,0,3.47,2.05209129562423,0.964268249160235,0.84098559468005,0
2000,101,9.9,2.7,6.9,0.741783241658071,1.5,0,1.85,1.09182356650536,0.515065667016615,0.842693511849257,0
2000,102,4.2,3.3,5.7,0.774052652323659,0.8,1.3,0.79,0.465651240959459,0.219833469712565,0.842087130745414,0
2000,103,9.7,3.3,10,0.774052652323659,1.2,0,2.05,1.20910694564284,0.572187781747285,0.840211887536746,0
2000,104,7.6,4.4,7.6,0.836443782617892,1.6,2.7,1.48,0.875454757741009,0.414095393814298,0.844065582089835,0
2000,105,4.7,2.2,5.6,0.715805444331265,1.7,5.2,0.96,0.56524139508159,0.27191447612454,0.847658759696362,0
2000,106,17.4,1,6.1,0.656709163989081,3.1,0.3,3.12,1.83857288558771,0.872303567331023,0.846563380849319,0
2000,107,2.7,1.6,6.8,0.685695074338206,0.9,0,0.70,0.41023547011204,0.200009303614329,0.843697639865336,0
2000,108,3.8,2.7,7.9,0.741783241658071,1.2,1.3,0.94,0.548468674276758,0.265238835688566,0.842928607799371,0
2000,109,4.6,5.4,7.8,0.896969389904019,2.3,7,0.99,0.583139436892346,0.278182126264268,0.844291028323951,0
2000,110,12.7,5.6,12.7,0.909527462751512,2.2,0,2.92,1.71925451551063,0.824127602171432,0.848046117100223,0
2000,111,7.9,7.6,12.1,1.0438914352743,2.8,3.8,1.94,1.13517825906739,0.554863310847324,0.858426125851962,0
2000,112,2.5,6.3,9.8,0.954709880599415,1.6,31.7,0.71,0.412203673184012,0.208374566803444,0.870216506693457,0
2000,113,14.8,6.1,13.8,0.941603121269029,1.8,0.5,3.35,1.94303279618259,0.969443448614068,0.87880067389612,0
2000,114,6.7,5.9,10.5,0.928655184057023,1.7,0.2,1.54,0.885630263416349,0.453385102223923,0.892677163375052,0
2000,115,12.9,4,10.6,0.813261095826253,1.2,0,2.62,1.50785101082658,0.771870262186975,0.899657874276855,0
2000,116,16.8,2,10.5,0.705641434144028,0.8,0.5,3.22,1.8462679467941,0.95035683118347,0.905860398595515,0
2000,117,3.5,6,11,0.935109403393734,1.3,2.7,0.98,0.553180643063837,0.294910460385163,0.910422334754795,0
2000,118,13.9,9.5,15.5,1.18742053657885,1.3,1.3,3.18,1.81079054036615,0.953934763578648,0.922175366148394,0
2000,119,14.8,9.1,21,1.1558393550368,2.9,0.6,4.44,2.48686525614942,1.37002760282016,0.94012224814722,0
2000,120,20.4,16.2,25,1.84164513041779,2.8,0,5.84,3.2477378193128,1.82679283265705,0.966597497151974,0
2000,121,19.4,7.6,18.3,1.0438914352743,1.7,0.2,4.70,2.57625894228313,1.51497854414629,1.00210125368439,0
2000,122,14.6,8.1,18.2,1.0800971266534,1.3,0.6,3.64,1.97031650225872,1.1939178543181,1.02406396149132,0
2000,123,5,7.1,9.2,1.00875864812438,1.2,0,1.02,0.547275154848581,0.336881385659608,1.04292960769794,0
2000,124,15.6,6,11.2,0.935109403393734,3.4,0,3.36,1.79407037182733,1.12378801456003,1.05341003507331,0
2000,125,24.3,5.1,13.4,0.878418853288568,1.6,0.1,4.97,2.64959173750479,1.66842723095127,1.06375656566435,0
2000,126,23.9,4.7,12.5,0.854211365929442,2.7,0,4.96,2.62649559157785,1.68698282876704,1.0771370685637,0
2000,127,21.2,6.3,13.8,0.954709880599415,2.4,0,4.59,2.41402330788295,1.57632562210618,1.09069017602546,0
2000,128,23.9,6.2,16.8,0.948136544453324,1.2,0,5.25,2.74236663883739,1.82067975237665,1.10674621452261,0
2000,129,24,9.6,18.6,1.19543343479378,1.5,0,5.56,2.87931103086397,1.95712659299454,1.12750561620034,0
2000,130,24.4,10.9,19.3,1.30401375259097,1.5,0,5.72,2.92224910215613,2.04915086185496,1.15554274743674,0
2000,131,24.3,7,19,1.00185842597615,3.1,0.1,6.12,3.07096504712265,2.25441216659347,1.18508003488533,0
2000,132,26,6.6,13.6,0.974671456630646,4,0,5.67,2.82338479914586,2.10391865184375,1.20515157205282,0
2000,133,25.9,7.4,16.1,1.02971111403679,1.7,0,5.63,2.78446242887632,2.10799728698769,1.22391169337831,0
2000,134,26,6.6,19.2,0.974671456630646,1.9,0,6.14,2.99761021887718,2.33947484327532,1.24644722426458,0
2000,135,26.4,8.4,19,1.10234711198881,1.3,0,6.02,2.91298392982075,2.32525688701055,1.27263422329114,0
2000,136,23.5,8.9,19.5,1.14032769784963,1.2,0,5.48,2.61731027438733,2.15061952958668,1.2988843523843,0
2000,137,20.5,12.2,23.6,1.42116822098358,1.4,7.1,5.38,2.52566580548095,2.15529052015764,1.33093649827831,0
2000,138,8.9,8.3,18,1.09488604334439,2.5,7.3,2.75,1.25169501622824,1.14159029663508,1.37288111919742,0
2000,139,14.6,8,13.1,1.07276882588113,2.3,11.1,3.17,1.44200306419271,1.31822518607053,1.40149503536553,0
2000,140,7.6,7.2,10.8,1.01570069227793,1.4,15.7,1.61,0.722623106427539,0.674405651216671,1.42098227438591,0
2000,141,24.3,6.1,10.9,0.941603121269029,2.5,0,4.67,2.09322773772116,1.96451686005587,1.4356946491418,0
2000,142,25.5,5.3,11.6,0.890747868683361,3.9,0,5.20,2.30663818873299,2.21301460766299,1.45146096227007,0
2000,143,19.2,6.6,12.3,0.974671456630646,2.1,2.5,3.92,1.7280264512417,1.67812492587658,1.46694391795576,0
2000,144,17.9,6.9,13.8,0.994999810113081,1.5,6.1,3.78,1.65107640137733,1.63564860971091,1.486501600584,0
2000,145,21.6,6,11.6,0.935109403393734,3.2,4.5,4.39,1.89774855716773,1.92156998471744,1.50902867470494,0
2000,146,25.1,6,12.9,0.935109403393734,1.9,1.7,5.02,2.15172737126908,2.21239042134832,1.52928110933742,0
2000,147,20.5,7,12.5,1.00185842597615,1.9,3.7,4.13,1.75197529941145,1.83805656951295,1.55097476364051,0
2000,148,8.6,7.4,13.4,1.02971111403679,3.7,9.3,2.35,0.971954881826188,1.06864325148619,1.57196857128867,0
2000,149,15.9,7.5,12.3,1.03677992764607,4,3.6,3.50,1.45054414746287,1.59714277439404,1.59354301648449,0
2000,150,13,6.9,10.7,0.994999810113081,5.4,3.5,2.90,1.18506135891948,1.3333211617305,1.61290060737763,1
2000,151,22.2,5.3,10.1,0.890747868683361,4.1,0.8,4.52,3.19606004441075,0.737459137381102,0.457056958612907,0
2000,152,21.7,5.3,11,0.890747868683361,2,8.7,4.33,3.03780098458192,0.730328649811154,0.475649640739596,0
2000,153,5.9,6,11.8,0.935109403393734,1.6,7.3,1.52,1.0533537212849,0.271923551359736,0.496032896892576,0
2000,154,9.5,6.6,11.5,0.974671456630646,4.3,1.3,2.42,1.65651880812327,0.451181224835269,0.520724067741029,0
2000,155,20.7,4.1,10.8,0.81900297596515,3.4,0.6,4.34,2.94141924360069,0.832571928071531,0.545576373764562,0
2000,156,26,2.9,11.9,0.752405182604831,1.9,0,5.19,3.48734963010023,1.02453322492272,0.566110541598103,0
2000,157,28.4,6,13.9,0.935109403393734,1.6,0,5.88,3.91177791266735,1.19886083343064,0.589249296226103,0
2000,158,8.1,6.9,15.4,0.994999810113081,0.7,5.9,2.05,1.33835371487946,0.445255731107215,0.62271716403251,0
2000,159,13.5,7.5,11.7,1.03677992764607,2.6,2.3,2.91,1.87886148776209,0.655738341221505,0.655466486435038,0
2000,160,20.5,8,13.3,1.07276882588113,1.8,0,4.32,2.7473935305317,1.00479806755022,0.685403582072704,0
2000,161,28.2,9.8,20.8,1.21160202659855,2.1,0,6.98,4.36051237558357,1.70569215402945,0.721731710349876,0
2000,162,8,8,16.7,1.07276882588113,1.9,3.4,2.35,1.41501791829111,0.62423868442519,0.782887961596455,0
2000,163,13.9,7.6,12.8,1.0438914352743,2.9,1,3.15,1.87226285114713,0.87062692337309,0.830237267275257,0
2000,164,9.3,9.7,13.2,1.20349385135844,2.4,5.3,2.15,1.25122962927023,0.61478434096457,0.869372413164886,0
2000,165,22.1,10.5,13.8,1.26971689129418,5.4,7.1,4.89,2.79850548270861,1.45103878737192,0.912558712655556,0
2000,166,17.2,9.3,12.5,1.17153633880621,4,0,3.68,2.06113336552477,1.14210374306907,0.962194666434644,0
2000,167,22,7.5,11.6,1.03677992764607,5.6,1,4.69,2.5678576326767,1.51054971016896,1.00593557108329,0
2000,168,20.3,6.6,11.4,0.974671456630646,5.3,0.1,4.39,2.36129152300473,1.45953231775358,1.0429846831386,0
2000,169,25.2,5.2,13.3,0.884564423081917,1.4,1.1,5.07,2.69116973797333,1.72096814681154,1.07787474992506,0
2000,170,8.8,10.1,14,1.23621552243184,1.5,0,2.02,1.04681177723674,0.706984659278356,1.1186430106196,0
2000,171,19.5,9.9,19.6,1.21975820182551,1.8,0,4.85,2.45054013498403,1.76383042201916,1.17229388053989,0
2000,172,25.3,11.5,23,1.35698578037907,1.3,0,6.33,3.09964065843509,2.40294570893549,1.24366805317127,0
2000,173,6.5,12.9,19.8,1.48800152106417,1.3,4.5,1.95,0.907232361330948,0.78503348668012,1.32957695004267,0
2000,174,9.9,11.6,14.5,1.36599584557115,1.9,14.7,2.21,1.00059357421543,0.920649936055289,1.41181851003793,0
2000,175,10.6,10.8,15.8,1.29536408639375,1.8,3.3,2.54,1.10952989157201,1.09642649509208,1.47814602713185,0
2000,176,16,10.3,15.8,1.25286776349517,1.5,3.1,3.56,1.51499441774092,1.58163860879501,1.54363922184399,0
2000,177,13.3,9.9,12.2,1.21975820182551,5.6,0,2.88,1.18806227146889,1.31761056198711,1.60681892684127,0
2000,178,17.3,8.1,11.7,1.0800971266534,7.8,0.1,3.92,1.56728925062236,1.8444888953863,1.66439555343061,0
2000,179,28.8,8,11.6,1.07276882588113,7.9,0,5.95,2.33267187689356,2.84478169768731,1.71537474410235,0
2000,180,19.1,8,11.7,1.07276882588113,5.1,0,4.01,1.53278621257926,1.95245303626669,1.7641468619455,0
2000,181,18.9,8.3,15.9,1.09488604334439,1.4,0,4.14,1.54771761517168,2.05276734603337,1.81355304152617,0
2000,182,7,9.8,13.9,1.21160202659855,1.8,12.6,1.68,0.605704924914465,0.857185007023412,1.87953804127747,0
2000,183,7.9,12.3,17,1.43055140441221,1.1,3.7,1.94,0.67827134854778,1.00725643971722,1.94400703563465,0
2000,184,23.6,11.6,18.8,1.36599584557115,1.8,0,5.41,1.82593376632891,2.87836057696543,2.02940056140368,0
2000,185,21,10.3,18,1.25286776349517,1.7,0,4.79,1.54553039259435,2.62200890066605,2.1214608664531,0
2000,186,11.3,11,13.9,1.31271413910583,3,0,2.49,0.772601951515791,1.38953900858063,2.1980032034926,0
2000,187,8.9,11.4,14.8,1.34802797116349,1.1,0,1.96,0.588620567435659,1.11226835814424,2.2666297994742,0
2000,188,4.4,8.7,12.2,1.12499949531261,4.1,0.4,1.30,0.369668731368151,0.758972176583024,2.33579712125104,0
2000,189,23.7,7.8,11.6,1.0582434147157,5.5,0,4.80,1.35777091509697,2.81341803394019,2.39276124347158,0
2000,190,25.8,7.3,12.2,1.02268477506743,2.9,0,5.04,1.39812750850191,2.98663669018554,2.44083861506211,0
2000,191,25.6,7.5,16.6,1.03677992764607,1.2,0,5.38,1.45467676165798,3.2220363702386,2.48994310710933,0
2000,192,9.1,10.8,15.2,1.29536408639375,1.4,3.7,2.09,0.544401174081164,1.27035882266466,2.55479195508695,0
2000,193,12.2,11,15.8,1.31271413910583,1.9,10.2,2.79,0.704984544694342,1.71900917877773,2.62036844543032,0
2000,194,12.3,10,12.8,1.22796261933938,4.6,0.2,2.69,0.65871879996406,1.678981005587,2.6848145148766,0
2000,195,22.2,9.4,12.6,1.17945491737072,3.4,0,4.39,1.05674429269056,2.76443992532726,2.73729263713413,0
2000,196,28,8.4,14.2,1.10234711198881,3.9,0,5.86,1.37021781671983,3.72243691020688,2.78603734222194,0
2000,197,26.3,8.9,17.4,1.14032769784963,2.9,0,5.94,1.35355105551948,3.81292035110512,2.83558637200411,0
2000,198,26.1,10.2,18.7,1.24451715538916,1.7,0,5.82,1.2945650398306,3.76433744798935,2.89054518435214,0
2000,199,8.6,10.1,12.3,1.23621552243184,2,0,1.76,0.380640156927739,1.1495667426346,2.95008685692747,0
2000,200,6.9,9.8,11.7,1.21160202659855,3.9,0.1,1.50,0.316514177087516,0.9898696111704,2.99228526346268,0
2000,201,13.5,9.4,12.7,1.17945491737072,5.8,0,3.04,0.628113101901524,2.01921185189385,3.0308713653898,0
2000,202,20.8,9.4,14.2,1.17945491737072,5.5,0.1,4.66,0.946099355870489,3.10875177650817,3.06882948455657,0
2000,203,25.6,8.7,15.7,1.12499949531261,3.4,0,5.59,1.11591227778413,3.74765695980296,3.10873214945061,0
2000,204,26.1,8.7,16.7,1.12499949531261,1.2,0,5.43,1.06843002006863,3.65727497199143,3.14882262170258,0
2000,205,25.7,10.9,20.2,1.30401375259097,1.2,0,5.80,1.11725791779874,3.92734046992391,3.1880045961902,0
2000,206,13.5,11.8,19.6,1.38417378318429,0.7,0.6,3.20,0.598398539895273,2.18024594649649,3.23784210154554,0
2000,207,11,15,20.3,1.70534623211577,0.9,0.4,2.68,0.489960205826356,1.83732338535951,3.28594879830677,0
2000,208,5.4,13.5,17.1,1.54746724277946,1,10.6,1.34,0.23905305238023,0.929751704226219,3.33362473442702,0
2000,209,7,13.2,15.2,1.51747872260568,0.9,2.2,1.49,0.263420828521342,1.03451060280898,3.37114872673616,0
2000,210,8.2,13,16.2,1.49777090275698,0.7,1.6,1.81,0.313396017059329,1.25770676012853,3.40220707574945,0
2000,211,16.4,13.1,17.7,1.5075965447621,2.1,0,3.72,0.634703004985167,2.59627388054392,3.43157131926954,0
2000,212,8,12.5,15.2,1.44948112482845,3.3,0,1.90,0.317556046001651,1.3322292884011,3.45981728994975,0
2000,213,12.6,10.8,14.4,1.29536408639375,3.2,0.3,2.80,0.464361292465985,1.96629720522169,3.48128395231771,0
2000,214,7.5,9.8,14.7,1.21160202659855,0.6,1.1,1.67,0.275178485364524,1.18050442290723,3.50036766363049,0
2000,215,13.3,12.6,17.5,1.4590281988655,1.3,0,3.01,0.491628869066019,2.12180773979213,3.51896533115491,0
2000,216,22.7,10.7,17.8,1.28676488816384,2.3,0.1,5.10,0.823804314554968,3.60852353200423,3.54159012629573,1
2000,217,6.1,11.8,13.9,1.38417378318429,2.1,4.1,1.45,1.05019490226125,0.209542025036966,0.400375635673258,0
2000,218,11.3,11.8,15.3,1.38417378318429,2.1,1.2,2.67,1.88331889992489,0.437605184655641,0.460072007585626,0
2000,219,11.6,10.3,14.9,1.25286776349517,4.2,9.9,3.02,2.06368450511518,0.5603684566626,0.522393204662736,0
2000,220,12.2,9.3,12.3,1.17153633880621,5.3,2.9,2.85,1.89542299638099,0.582438849858368,0.585122225250147,0
2000,221,16.9,9.1,13.7,1.1558393550368,4.7,0.4,3.99,2.59502017172309,0.876042092501961,0.634650696608097,0
2000,222,23.1,8,15,1.07276882588113,2.4,0,5.15,3.27228403991416,1.20320175747854,0.686218726928105,0
2000,223,3.6,11.3,16.2,1.33912215939985,1.1,9.8,1.11,0.681190149755227,0.281809284531896,0.741417279062376,0
2000,224,4.6,10.7,14.1,1.28676488816384,2.9,4,1.32,0.78461130435293,0.36206315426609,0.813768110749641,0
2000,225,14.7,9.7,13.9,1.20349385135844,1.7,0.1,3.20,1.86075002397748,0.917809457862049,0.87732051062519,0
2000,226,8.7,10.1,19.1,1.23621552243184,0.7,0,2.36,1.32813957403355,0.720353194524229,0.934688571877608,0
2000,227,2.9,13.9,17.2,1.58826034462015,1.8,40.4,0.94,0.510179779386405,0.308581190104399,1.00754099074671,0
2000,228,3.9,12.3,15,1.43055140441221,1.5,8.5,1.02,0.535908648878517,0.352112812894983,1.0872656455182,0
2000,229,12.9,11,17.7,1.31271413910583,0.9,18.4,3.08,1.5696918516243,1.10455548862172,1.15541940656627,0
2000,230,12.3,11.1,16.3,1.32146549931013,1.4,3.2,2.88,1.42269073353832,1.0788932935929,1.2227261076065,0
2000,231,13.2,10.6,16.1,1.27821590656944,1.7,7.2,3.09,1.48131120359483,1.20628645435474,1.28805325133541,0
2000,232,12.9,9.4,16.8,1.17945491737072,0.9,19,3.02,1.40202471156245,1.22050674084357,1.35191983331435,0
2000,233,11.6,11.6,16,1.36599584557115,3,8.5,2.85,1.28578649416211,1.1959367959382,1.41427949713912,0
2000,234,15.2,11,14.6,1.31271413910583,4.5,0.4,3.52,1.54272005566654,1.5209548938415,1.47789630950927,0
2000,235,12.1,10.2,14.6,1.24451715538916,3.5,2.7,2.91,1.23422062251391,1.29215794957748,1.53654734699761,0
2000,236,12.2,9.6,13.9,1.19543343479378,2.3,1,2.73,1.13318441295357,1.24179624321811,1.59191661979221,0
2000,237,10.9,10.2,14.9,1.24451715538916,4.7,26.7,2.86,1.14926441131333,1.34092817955182,1.6462294099377,0
2000,238,17.3,10.1,16.7,1.23621552243184,2,0,4.00,1.57408784760735,1.90281059247508,1.70258086888456,0
2000,239,17.7,10.1,20.3,1.23621552243184,1.5,0,4.42,1.68903692791816,2.15785667448447,1.76194191118997,0
2000,240,9.2,14.1,18.5,1.6090084391754,1.8,1.4,2.34,0.865118031613121,1.17181674898557,1.83161012140758,0
2000,241,1.6,13.2,14.8,1.51747872260568,0.5,43.9,0.42,0.148511888332468,0.215368622329571,1.90541337935859,0
2000,242,9.5,12.6,15.5,1.4590281988655,1.1,0.4,2.09,0.727300504723375,1.08972697582934,1.96764154313581,0
2000,243,2.4,11.1,13.3,1.32146549931013,4.3,13.9,0.81,0.26637726560075,0.436087523138833,2.0273200533382,0
2000,244,6.6,9.4,13.8,1.17945491737072,1.3,0.1,1.56,0.511627494062461,0.847249904243834,2.07746463895346,0
2000,245,12.5,9.5,17,1.18742053657885,0.8,0,2.89,0.927051253921984,1.58268635305026,2.12532986699273,0
2000,246,14.7,9.5,16.5,1.18742053657885,1.6,0,3.39,1.06272690410189,1.88934135965586,2.1777964838297,0
2000,247,17.9,10,15.9,1.22796261933938,1.6,0,3.91,1.19762825401165,2.19965482639964,2.22885916872099,0
2000,248,14.8,8.5,14.4,1.10985289088904,1.8,0.1,3.23,0.963054646812216,1.84329136001728,2.27947258964214,0
2000,249,9.8,9.8,14.7,1.21160202659855,1.1,0.3,2.19,0.639370566971985,1.2636808014456,2.32266193811524,0
2000,250,3.7,12,15.2,1.40256387304696,1,18.1,0.96,0.27121365601858,0.5595080405388,2.36650633607937,0
2000,251,6.2,10.3,14.1,1.25286776349517,2,11.8,1.53,0.423286829172565,0.904141290023079,2.41683368774203,0
2000,252,11.1,11.9,14.8,1.39334217786484,3.3,0,2.51,0.686938859727854,1.49907708297727,2.4622373584122,0
2000,253,12.8,11.4,14.9,1.34802797116349,3.4,0,2.91,0.775971825678542,1.75374777165905,2.51079160141033,0
2000,254,12.2,10.4,14.3,1.26126759303422,3.3,0.1,2.78,0.724876822198278,1.69454763965673,2.55596572070024,0
2000,255,15.5,7.3,13.7,1.02268477506743,1.7,0,3.28,0.839441891727408,2.01450665312838,2.59798486345773,0
2000,256,4.6,8.4,13.3,1.10234711198881,1,0,1.16,0.2894264688663,0.72216681462473,2.63144748497365,0
2000,257,8.9,10.6,16.3,1.27821590656944,0.7,0,2.07,0.509731466168115,1.28696780486495,2.66916816813264,0
2000,258,3.7,10.5,13.5,1.26971689129418,1.6,4.3,0.95,0.226989962820095,0.597534538104728,2.71226290635414,0
2000,259,4,12,14.5,1.40256387304696,2.4,0,1.04,0.245093720368835,0.662094011654107,2.75232616023086,0
2000,260,3.8,12.1,15.6,1.41183913248384,1.3,3.2,1.02,0.23536108219587,0.655734971717922,2.79595643665862,0
2000,261,5.9,11.7,15.3,1.37505842630393,1.9,1.9,1.48,0.333985824689644,0.952889544877325,2.84060542200964,0
2000,262,1.9,12,13.9,1.40256387304696,2.6,22,0.59,0.127792990295663,0.381692697668871,2.88224486540369,0
2000,263,8.7,12,14.7,1.40256387304696,2.7,0.1,1.97,0.431119542544484,1.28581478010666,2.92254204626349,0
2000,264,12.2,10.7,15.6,1.28676488816384,3,0,2.91,0.620107317870279,1.90853800375201,2.96269952903292,0
2000,265,7.3,11.8,15.5,1.38417378318429,2,0.1,1.77,0.369392379249711,1.16743754701358,3.00309616812115,0
2000,266,6.9,11.8,14.9,1.38417378318429,2.6,0,1.67,0.342215674848485,1.11061917794829,3.04333110981175,0
2000,267,4.7,12.3,15,1.43055140441221,1.8,0,1.16,0.23291545626432,0.775646215010654,3.08189032166076,0
2000,268,12.4,10.7,16.9,1.28676488816384,1.2,0,2.85,0.563626697515912,1.9119240566416,3.12255054976046,0
2000,269,12.1,8.9,17.7,1.14032769784963,1.2,0,2.93,0.566712969679986,1.98455950768163,3.16264357059315,0
2000,270,10,6.8,15.5,0.988182585722631,1.4,0,2.44,0.461491488935276,1.66283169863398,3.19925930026665,0
2000,271,3.6,11,15,1.31271413910583,2.6,2.9,1.14,0.209140914053932,0.780926696966109,3.22853540789336,0
2000,272,1.3,11.7,13.9,1.37505842630393,2.2,25.5,0.48,0.0861876004646917,0.332500160153277,3.26321204826548,0
2000,273,2.5,12.5,17.5,1.44948112482845,0.9,0.5,0.86,0.154675375758052,0.592919553274907,3.26616305301545,0
2000,274,10.1,15.2,21.2,1.72742886246687,1.4,0,2.65,0.477866810561019,1.82928576288665,3.30850226435933,0
2000,275,7.7,11.2,18,1.33026808760019,1.2,0.1,2.03,0.353850746428435,1.40932564730118,3.36139196067419,0
2000,276,0.6,11.6,14.6,1.36599584557115,0.9,2.6,0.33,0.0547370175631838,0.234678320860412,3.4009080673207,0
2000,277,5.2,11.1,15,1.32146549931013,1.2,0,1.28,0.224903526497453,0.890052884728311,3.35559697083314,0
2000,278,1.5,9.1,13.4,1.1558393550368,2.2,14.2,0.70,0.116907349535842,0.494491685733884,3.38795455992606,0
2000,279,5.3,7.8,13.7,1.0582434147157,1,5,1.34,0.230256783936102,0.933368913602302,3.38302391439993,0
2000,280,5.7,10.1,13.8,1.23621552243184,0.7,9.3,1.28,0.219217068340101,0.890771604753995,3.40956116034412,0
2000,281,7.4,8.6,13.8,1.11740360877135,1.2,1.1,1.71,0.288182299529707,1.19678726509472,3.43750426384779,0
2000,282,1.8,9.3,11.3,1.17153633880621,1.8,3.3,0.50,0.0818002088319016,0.351460196448121,3.46445323943466,0
2000,283,4.5,7.3,11.3,1.02268477506743,1.5,7.1,1.08,0.1811056066395,0.759272987429879,3.43963305273648,0
2000,284,3.2,7.1,12.1,1.00875864812438,2.5,2.2,1.06,0.17286567430622,0.749635941176222,3.45649898232853,0
2000,285,5.7,7.1,11.5,1.00875864812438,3.2,3.4,1.49,0.243437409585866,1.05310031963452,3.47955295215372,0
2000,286,6.6,8.6,13.5,1.11740360877135,1.8,6.3,1.61,0.262229688561039,1.13795231301807,3.50084374176285,0
2000,287,3.9,9.4,13.6,1.17945491737072,1.3,3.1,1.03,0.165134569487685,0.73249415869297,3.52707805495102,0
2000,288,3,8.7,12.1,1.12499949531261,1.6,2.6,0.81,0.127977078877664,0.579424381044172,3.55399847073927,0
2000,289,1.2,10.1,11.7,1.23621552243184,1.3,2.7,0.34,0.0531709739933754,0.24493845533241,3.57768539498754,0
2000,290,5.5,10.7,15.2,1.28676488816384,1.9,1.6,1.46,0.232812251768029,1.03624250997251,3.53731826334533,0
2000,291,1.6,9.8,13.9,1.21160202659855,1.8,5.6,0.67,0.102409777599163,0.480539699856842,3.56966739371431,0
2000,292,1.5,7.9,11.5,1.06548432990747,2.3,22.3,0.62,0.0950442349916239,0.443168871592779,3.5556405122633,0
2000,293,1,7.6,11.5,1.0438914352743,1.5,30.7,0.48,0.0752560206477074,0.346081618070388,3.51953395355113,0
2000,294,6.1,6.7,12,0.981406538897068,0.9,0.1,1.37,0.226305161016805,0.969114392724497,3.4841550562418,0
2000,295,0.4,9.9,12.2,1.21975820182551,2.3,25.3,0.32,0.0489525985491133,0.226389451648374,3.50195406766314,0
2000,296,5.3,6.9,12,0.994999810113081,1,0,1.24,0.206239336595365,0.874542159695285,3.46244141485907,0
2000,297,2,9.1,12.1,1.1558393550368,2.3,4.7,0.66,0.106890959760484,0.469724336617449,3.48114671398826,0
2000,298,3.4,8.7,11.2,1.12499949531261,4.2,10.6,0.96,0.156402256844769,0.680228592045828,3.4805607816502,0
2000,299,1.2,8.2,10.4,1.08746945717719,1.5,12.7,0.38,0.0612699471341312,0.272892944837686,3.50337040988289,0
2000,300,2,8.1,10.7,1.0800971266534,3.5,5.8,0.68,0.109967939996268,0.481252417634532,3.46833670578406,0
2000,301,2.1,7.1,9.2,1.00875864812438,1.6,1.3,0.52,0.086510359140203,0.363090824564602,3.43365333872622,0
2000,302,3.4,6.5,10.9,0.967977126816785,1.4,1.4,0.90,0.152526458514839,0.629709750502513,3.39931680533896,0
2000,303,1.5,6.6,10,0.974671456630646,4.3,17.1,0.74,0.120339981766862,0.51984263899932,3.41314013950076,0
2000,304,1.1,4.1,8.6,0.81900297596515,4.7,37.8,0.81,0.132869793298211,0.57106847404504,3.37900873810575,0
2000,305,2.6,6,9.8,0.935109403393734,6.5,8.5,1.15,0.195463959044526,0.80665467787676,3.34521865072469,0
2000,306,1.7,5.1,8.7,0.878418853288568,2.1,9.9,0.59,0.102169799952906,0.408344100230705,3.31176646421745,0
2000,307,3.6,4.3,8.5,0.830594128417611,1.5,4,0.87,0.156508347237535,0.598620618576454,3.27864879957527,0
2000,308,1.5,5,9.2,0.872310960349712,2.9,12.6,0.68,0.121563164925865,0.472827585183351,3.24586231157952,0
2000,309,1.6,5,8.6,0.872310960349712,1.3,18.5,0.51,0.0927617242723193,0.34695102550593,3.21340368846372,0
2000,310,2.3,4.5,9.1,0.842329744778648,1.6,5.2,0.71,0.132799818648901,0.486147920639951,3.18126965157909,0
2000,311,2.5,4.4,8.5,0.836443782617892,2.2,0,0.75,0.143087070034266,0.512936398054528,3.1494569550633,0
2000,312,0.3,7.5,9.5,1.03677992764607,3.8,0,0.32,0.0599194778012214,0.220493818205021,3.11796238551266,0
2000,313,1.9,5.8,10.5,0.922240257368075,1.5,0.1,0.67,0.130803551492599,0.453673082002048,3.08678276165754,0
2000,314,2.1,6,9.5,0.935109403393734,1.6,1.3,0.62,0.123450549817827,0.415320323828343,3.05591493404096,0
2000,315,2.2,5.7,9.9,0.915864418312889,0.6,0.1,0.59,0.120605623134953,0.395277231878423,3.02535578470055,0
2000,316,1.6,5.7,9.7,0.915864418312889,1.4,6.9,0.56,0.113312463316973,0.370510427262967,2.99510222685355,0
2000,317,0.6,6.8,9.7,0.988182585722631,1.7,25.1,0.34,0.0694515671205503,0.22779656073364,2.96515120458501,0
2000,318,1.1,4.7,7.5,0.854211365929442,1.1,12.9,0.35,0.0742256245239531,0.233085118871322,2.93549969253916,0
2000,319,2.1,4.8,8,0.86020741349226,0.7,0.9,0.51,0.110377896316041,0.333255707654162,2.90614469561377,0
2000,320,1.9,4.5,7.6,0.842329744778648,1,2,0.49,0.106863264902346,0.318239118390278,2.87708324865763,0
2000,321,1.1,4.5,7.1,0.842329744778648,1.9,2.2,0.38,0.0837796936393737,0.249815119247478,2.84831241617105,0
2000,322,1.2,4.1,6.9,0.81900297596515,1.7,16.1,0.40,0.0884493470251552,0.258254038056097,2.81982929200934,0
2000,323,1.2,2.4,4.7,0.726098527572168,1.6,17.4,0.33,0.0756084599442822,0.215200788595211,2.79163099908925,0
2000,324,0.9,1.8,6.4,0.695605104272952,1.1,0.8,0.40,0.0909990791589597,0.260344710756904,2.76371468909836,0
2000,325,0.7,4.7,8.6,0.854211365929442,2.3,0,0.47,0.106025423950087,0.30113420445778,2.73607754220737,0
2000,326,1.9,4.9,7.7,0.866240546166533,1.7,0.1,0.52,0.122893012314484,0.328450840591366,2.7087167667853,0
2000,327,1.3,4.8,7.3,0.86020741349226,2.5,9.1,0.44,0.105301712883312,0.280435033021812,2.68162959911745,0
2000,328,1.3,6.4,8.4,0.961323338245264,1.5,7,0.37,0.0893070645810322,0.230136062423116,2.65481330312627,0
2000,329,0.3,5.1,9.3,0.878418853288568,3,10.1,0.50,0.11873320487191,0.319172471572111,2.62826517009501,0
2000,330,0.5,4.8,7.8,0.86020741349226,2.4,13.5,0.36,0.0872407340612847,0.226792858753076,2.60198251839406,0
2000,331,0.7,4.9,7.7,0.866240546166533,3.3,3.7,0.43,0.105759261391752,0.268756225149907,2.57596269321012,0
2000,332,1.4,4.9,8.5,0.866240546166533,1.5,4.1,0.49,0.124274490867164,0.302561432341673,2.55020306627802,0
2000,333,0.4,4.7,7.8,0.854211365929442,1.6,0.7,0.30,0.0750315848890293,0.185075210435651,2.52470103561524,0
2000,334,1,7.1,10.8,1.00875864812438,2.2,5.2,0.53,0.134842983103984,0.322129350942469,2.49945402525909,0
2000,335,0.8,4.4,10,0.836443782617892,2.8,1.2,0.70,0.179283340081754,0.42828040058123,2.47445948500649,0
2000,336,0.4,5.4,10,0.896969389904019,2.3,2.4,0.50,0.128257398084496,0.303112387672811,2.44971489015643,0
2000,337,0.7,8.4,9.6,1.10234711198881,2.7,1.5,0.26,0.068872842942127,0.153342457222097,2.42521774125487,0
2000,338,0.7,6.6,8.9,0.974671456630646,1.6,0,0.30,0.0816174171990856,0.180512230592749,2.40096556384232,0
2000,339,0.5,5.9,9.4,0.928655184057023,2.5,9.1,0.43,0.116116624117586,0.258624835236919,2.37695590820389,0
2000,340,0.3,9.1,10,1.1558393550368,2.6,11.9,0.15,0.0426774529609957,0.0917331513240384,2.35318634912185,0
2000,341,0.2,8.4,9.6,1.10234711198881,1.9,11.2,0.15,0.0405373298196675,0.0867831153381311,2.32965448563064,0
2000,342,0.6,6.3,9.2,0.954709880599415,0.3,1.6,0.24,0.0692862208593098,0.142692724876742,2.30635794077433,0
2000,343,0.3,4.9,9.3,0.866240546166533,2.3,3.5,0.45,0.127253266871572,0.267616698652138,2.28329436136659,0
2000,344,0.3,5.5,9.1,0.903229187415273,2.3,15.4,0.39,0.109881055391311,0.226672030287452,2.26046141775292,0
2000,345,0.7,7.1,8.4,1.00875864812438,2.8,5.8,0.26,0.0768162738611031,0.149710356694018,2.23785680357539,0
2000,346,0.3,5.4,8.1,0.896969389904019,1.6,2.4,0.26,0.0754643139496178,0.149424107469584,2.21547823553964,0
2000,347,0.2,4.2,8.9,0.82478058998621,1.4,2.4,0.36,0.106466310493469,0.20995085013532,2.19332345318424,0
2000,348,0.4,5.8,9.8,0.922240257368075,4.9,21.6,0.68,0.202050906700712,0.391452429272092,2.1713902186524,0
2000,349,0.4,5.5,8.1,0.903229187415273,5.7,12.5,0.51,0.152771144404831,0.290072820660355,2.14967631646587,0
2000,350,0.4,2.5,6.4,0.731293910217631,5.1,0.2,0.62,0.186594380914533,0.349851632100527,2.12817955330122,0
2000,351,1.1,-0.1,3.1,0.606369052134635,1.3,0.1,0.35,0.303969988097148,0,0,0
2000,352,0.7,-0.6,3.6,0.584637876198776,0.1,0,0.25,0.220213000067834,0,0,0
2000,353,0.8,0.7,3.7,0.642626504140032,0.7,0.1,0.27,0.232594596633643,0,0,0
2000,354,1.1,0.1,2.7,0.615259552462772,1.5,0,0.32,0.282059997440146,0,0,0
2000,355,0.7,1.3,3,0.671063852424105,2.3,0,0.24,0.211935803779263,0,0,0
2000,356,1.2,0.3,3.4,0.624265106870579,1.4,0.1,0.37,0.320986882404871,0,0,0
2000,357,0.3,-0.2,2.9,0.601966550846925,1.3,0,0.23,0.196314058121246,0,0,0
2000,358,1,-1,2.5,0.567751891176205,0.9,0.6,0.32,0.275208565358253,0,0,0
2000,359,1,-3.9,0.3,0.457691926656685,1.2,0.2,0.34,0.291816899585251,0,0,0
2000,360,1.1,-4.8,-1.4,0.427616872877163,1.1,0,0.29,0.251582412359983,0,0,0
2000,361,0.1,-2.3,0.6,0.515812868329809,0.4,15.2,0.13,0.109100198462536,0,0,0
2000,362,1,-1.3,0.4,0.55537203217068,0.8,4,0.22,0.18789139190243,0,0,0
2000,363,1,-4.4,-0.9,0.440760122900955,1.5,1.1,0.31,0.268708101532787,0,0,0
2000,364,0.5,-3.1,-0.8,0.48598334588251,1.3,3.4,0.18,0.160055618489539,0,0,0
2000,365,1.9,-7.3,-2.7,0.353058861939278,0.9,0,0.39,0.338249673970384,0,0,0
2000,366,0.9,-6.9,1.6,0.364151158671508,1.5,11,0.53,0.456806720582169,0,0,0
